Division,WeightClassKg,Place,Name,Team,BodyweightKg,Best3SquatKg,Best3BenchKg,Best3DeadliftKg,TotalKg,Equipment,Event,Sex
Boys,51.71,1,Conner Moore,White Settlement Brewer,49.62,104.33,58.97,115.67,278.96,Single-ply,SBD,M
Boys,51.71,2,Michael Galvan,Azle,51.71,95.25,40.82,115.67,251.74,Single-ply,SBD,M
Boys,55.79,3,Trey Johnson,Springtown,51.89,95.25,49.9,99.79,244.94,Single-ply,SBD,M
Boys,51.71,4,Kyle Hendrix,Weatherford,46.77,81.65,56.7,88.45,226.8,Single-ply,SBD,M
Boys,51.71,5,Dennis Mema,Saginaw,45.45,72.57,38.56,90.72,201.85,Single-ply,SBD,M
Boys,51.71,6,Parker Robinson,Fort Worth Boswell,47.76,65.77,38.56,88.45,192.78,Single-ply,SBD,M
Boys,59.87,1,Fred Brownlee,Weatherford,55.84,129.27,77.11,127.01,333.39,Single-ply,SBD,M
Boys,55.79,2,Dale Gallegos,Fort Worth Boswell,55.02,122.47,74.84,117.93,315.25,Single-ply,SBD,M
Boys,55.79,3,Anthony Cuevas,Saginaw,55.25,120.2,77.11,113.4,310.71,Single-ply,SBD,M
Boys,55.79,4,Paul Espinoza,Fort Worth Boswell,52.62,113.4,54.43,124.74,292.57,Single-ply,SBD,M
Boys,55.79,5,DeLonte Christmas,Fort Worth Boswell,55.7,117.93,58.97,104.33,281.23,Single-ply,SBD,M
Boys,55.79,DQ,Zach Cain,Granbury,55.34,142.88,,,,Single-ply,SBD,M
Boys,59.87,1,Demetrius Hutcherson,Azle,59.78,185.97,74.84,176.9,437.72,Single-ply,SBD,M
Boys,59.87,2,Chase Lynn,Springtown,59.87,174.63,83.91,170.1,428.64,Single-ply,SBD,M
Boys,59.87,3,Giancarlo Gonzales,Saginaw,59.51,142.88,72.57,151.95,367.41,Single-ply,SBD,M
Boys,59.87,4,Sawyer Wachel,Saginaw,59.78,136.08,72.57,133.81,342.46,Single-ply,SBD,M
Boys,59.87,5,Nick Thomas #4,Weatherford,57.7,133.81,65.77,136.08,335.66,Single-ply,SBD,M
Boys,59.87,6,Isaiah Mallory,Aledo,58.65,115.67,74.84,127.01,317.51,Single-ply,SBD,M
Boys,59.87,7,Jackson Walker,Springtown,59.87,102.06,63.5,122.47,288.03,Single-ply,SBD,M
Boys,67.13,1,James Murray,Springtown,66.45,163.29,92.99,167.83,424.11,Single-ply,SBD,M
Boys,67.13,2,Tre Kindle,Fort Worth Boswell,62.78,147.42,95.25,170.1,412.77,Single-ply,SBD,M
Boys,67.13,3,Gage McQuade,Fort Worth Boswell,66.32,167.83,95.25,142.88,405.97,Single-ply,SBD,M
Boys,67.13,4,Marquis Sanders,Saginaw,63.05,149.69,83.91,163.29,396.89,Single-ply,SBD,M
Boys,67.13,5,Jesse Valdez,Granbury,66.81,158.76,79.38,140.61,378.75,Single-ply,SBD,M
Boys,67.13,6,Jacob Gay,Weatherford,64.64,138.35,72.57,145.15,356.07,Single-ply,SBD,M
Boys,67.13,7,Jay Weatherly,Aledo,60.51,117.93,70.31,124.74,312.98,Single-ply,SBD,M
Boys,67.13,DQ,Scott Welch,Weatherford,65.09,172.37,,167.83,,Single-ply,SBD,M
Boys,74.84,1,Thomas Tyre,Springtown,73.35,226.8,97.52,208.65,532.97,Single-ply,SBD,M
Boys,74.84,2,Manny Rodriguez,Saginaw,74.12,192.78,124.74,215.46,532.97,Single-ply,SBD,M
Boys,74.84,3,Dominique Allen,Fort Worth Boswell,72.94,204.12,108.86,213.19,526.17,Single-ply,SBD,M
Boys,74.84,4,Ryan Wood #2,Fort Worth Boswell,74.39,192.78,117.93,210.92,521.63,Single-ply,SBD,M
Boys,74.84,5,Billy Chappell,Springtown,74.75,192.78,95.25,219.99,508.02,Single-ply,SBD,M
Boys,74.84,6,Tim Ramon,Azle,74.84,185.97,88.45,181.44,455.86,Single-ply,SBD,M
Boys,74.84,7,Ashton Goodson,Granbury,74.3,170.1,99.79,181.44,451.32,Single-ply,SBD,M
Boys,74.84,8,Lewis Blackwell,Saginaw,74.03,185.97,99.79,161.03,446.79,Single-ply,SBD,M
Boys,74.84,9,Josh Williams,Azle,70.44,192.78,72.57,156.49,421.84,Single-ply,SBD,M
Boys,74.84,10,Anthony Sanchez,Fort Worth Boswell,73.16,147.42,104.33,167.83,419.57,Single-ply,SBD,M
Boys,74.84,DQ,Robert Ard,Weatherford,72.85,195.04,,,,Single-ply,SBD,M
Boys,82.1,1,Juan Díaz,Saginaw,80.01,204.12,129.27,219.99,553.38,Single-ply,SBD,M
Boys,82.1,2,Cody Culwell,Azle,82.1,188.24,142.88,215.46,546.58,Single-ply,SBD,M
Boys,82.1,3,Dustin Martinez,Fort Worth Boswell,78.02,204.12,129.27,192.78,526.17,Single-ply,SBD,M
Boys,82.1,4,Walter Wood,Springtown,77.11,192.78,106.59,181.44,480.81,Single-ply,SBD,M
Boys,82.1,5,Russell Abrams,Saginaw,78.97,183.7,120.2,174.63,478.54,Single-ply,SBD,M
Boys,82.1,6,Colton Mallory,Weatherford,76.66,147.42,97.52,158.76,403.7,Single-ply,SBD,M
Boys,89.81,7,Preston Flurky,Granbury,82.28,158.76,86.18,154.22,399.16,Single-ply,SBD,M
Boys,82.1,8,Keith Cox,Saginaw,76.11,142.88,90.72,142.88,376.48,Single-ply,SBD,M
Boys,82.1,DQ,Jacob Ramirez,Saginaw,77.7,181.44,97.52,,,Single-ply,SBD,M
Boys,82.1,DQ,Aaron Vann,Saginaw,75.52,170.1,111.13,,,Single-ply,SBD,M
Boys,82.1,DQ,Colton Hall,Azle,79.83,174.63,,183.7,,Single-ply,SBD,M
Boys,82.1,DQ,Mike Milson,Granbury,81.42,176.9,127.01,,,Single-ply,SBD,M
Boys,89.81,1,CJ Washington,White Settlement Brewer,86.64,247.21,120.2,235.87,603.28,Single-ply,SBD,M
Boys,89.81,2,Shannon Larry,White Settlement Brewer,85.41,233.6,120.2,219.99,573.79,Single-ply,SBD,M
Boys,89.81,3,Russell Murphy,Saginaw,89.81,215.46,136.08,219.99,571.53,Single-ply,SBD,M
Boys,89.81,4,Trey Lyles,White Settlement Brewer,88.9,217.72,122.47,213.19,553.38,Single-ply,SBD,M
Boys,89.81,5,Ray Hart,Aledo,86.36,226.8,115.67,188.24,530.7,Single-ply,SBD,M
Boys,89.81,6,Slade Hodge,Weatherford,89.68,188.24,108.86,206.38,503.49,Single-ply,SBD,M
Boys,89.81,7,Wes May,Weatherford,89.13,181.44,92.99,188.24,462.66,Single-ply,SBD,M
Boys,89.81,8,Frankie Valenzuela,Weatherford,83.1,170.1,102.06,181.44,453.59,Single-ply,SBD,M
Boys,89.81,9,Justin Sanchez,Fort Worth Boswell,88.09,156.49,104.33,185.97,446.79,Single-ply,SBD,M
Boys,89.81,10,Grant Werts,Weatherford,88.41,145.15,92.99,176.9,415.04,Single-ply,SBD,M
Boys,89.81,11,Walker Hummell,Weatherford,86.95,142.88,79.38,147.42,369.68,Single-ply,SBD,M
Boys,89.81,DQ,Caleb Keys,Springtown,89.81,,,,,Single-ply,SBD,M
Boys,89.81,DQ,Chase Shipman,Granbury,84.82,,,172.37,,Single-ply,SBD,M
Boys,99.79,DQ,Alex Balboa,Granbury,89.99,,86.18,,,Single-ply,SBD,M
Boys,99.79,1,Hugo Gonzalez,White Settlement Brewer,90.72,229.06,127.01,197.31,553.38,Single-ply,SBD,M
Boys,99.79,2,Benito Galvan,Azle,98.88,210.92,122.47,210.92,544.31,Single-ply,SBD,M
Boys,99.79,3,Tanner Smith,White Settlement Brewer,92.12,208.65,113.4,192.78,514.83,Single-ply,SBD,M
Boys,99.79,4,Jared Hinsley,Aledo,90.72,188.24,120.2,192.78,501.22,Single-ply,SBD,M
Boys,99.79,5,Stephen August,Fort Worth Boswell,96.16,181.44,108.86,210.92,501.22,Single-ply,SBD,M
Boys,99.79,6,Josh Finholt,Weatherford,94.85,181.44,111.13,199.58,492.15,Single-ply,SBD,M
Boys,99.79,7,Cole Clifton,Springtown,97.25,183.7,104.33,204.12,492.15,Single-ply,SBD,M
Boys,99.79,8,Kent Sanner,Weatherford,97.7,176.9,113.4,192.78,483.08,Single-ply,SBD,M
Boys,99.79,9,Kolyn Waldrop,Springtown,95.71,181.44,108.86,190.51,480.81,Single-ply,SBD,M
Boys,99.79,10,Zach Hyles,Aledo,98.97,185.97,111.13,172.37,469.47,Single-ply,SBD,M
Boys,99.79,11,Brandon Stein,Springtown,99.34,195.04,108.86,158.76,462.66,Single-ply,SBD,M
Boys,99.79,12,Landon Lambert,Granbury,96.62,181.44,90.72,188.24,460.4,Single-ply,SBD,M
Boys,99.79,13,Jordan Moore #1,Azle,94.39,172.37,99.79,181.44,453.59,Single-ply,SBD,M
Boys,99.79,14,Tyler Jones #5,Granbury,99.34,181.44,108.86,163.29,453.59,Single-ply,SBD,M
Boys,99.79,15,Eric Estill,Aledo,95.71,163.29,97.52,170.1,430.91,Single-ply,SBD,M
Boys,99.79,16,Tony Keith,Aledo,99.34,145.15,92.99,167.83,405.97,Single-ply,SBD,M
Boys,99.79,17,Colton Pershall,Granbury,96.16,158.76,92.99,140.61,392.36,Single-ply,SBD,M
Boys,99.79,18,Quenton Wruble,Aledo,97.2,136.08,97.52,156.49,390.09,Single-ply,SBD,M
Boys,99.79,DQ,Roy Buchanan,Granbury,97.07,176.9,,156.49,,Single-ply,SBD,M
Boys,109.77,1,Brandon Fricke,Azle,107.5,224.53,142.88,249.48,616.89,Single-ply,SBD,M
Boys,109.77,2,Jermaine Rice,White Settlement Brewer,108.86,204.12,133.81,235.87,573.79,Single-ply,SBD,M
Boys,109.77,3,Austin Thompson,White Settlement Brewer,101.74,201.85,127.01,197.31,526.17,Single-ply,SBD,M
Boys,109.77,4,Bobby Suber,Saginaw,100.7,204.12,113.4,190.51,508.02,Single-ply,SBD,M
Boys,109.77,5,Destin Dorsett,Weatherford,107.86,206.38,117.93,181.44,505.76,Single-ply,SBD,M
Boys,109.77,6,Jose Tovar,Weatherford,107.5,199.58,99.79,197.31,496.68,Single-ply,SBD,M
Boys,109.77,7,Brady McDowell,Azle,102.06,181.44,90.72,201.85,474,Single-ply,SBD,M
Boys,109.77,8,Rudy Martinez,Fort Worth Boswell,107.5,190.51,127.01,156.49,474,Single-ply,SBD,M
Boys,109.77,9,TJ Tomlin,Aledo,102.51,170.1,111.13,167.83,449.06,Single-ply,SBD,M
Boys,109.77,DQ,Zach Harriman,Weatherford,106.37,,,,,Single-ply,SBD,M
Boys,124.74,1,Andrew Cape,Weatherford,122.47,294.84,163.29,229.06,687.19,Single-ply,SBD,M
Boys,124.74,2,Anthony Washington,White Settlement Brewer,119.48,278.96,138.35,254.01,671.32,Single-ply,SBD,M
Boys,124.74,3,Joseph Pilgrim,Granbury,111.95,226.8,136.08,,362.87,Single-ply,SB,M
Boys,124.74,4,Hayden Davis,Weatherford,115.35,249.48,138.35,183.7,571.53,Single-ply,SBD,M
Boys,124.74,5,Jesse Melendez,Azle,115.12,219.99,108.86,188.24,517.1,Single-ply,SBD,M
Boys,124.74,6,Eric Gaucin,Springtown,118.3,215.46,106.59,190.51,512.56,Single-ply,SBD,M
Boys,124.74,7,Mario Medina,Saginaw,118.98,215.46,120.2,174.63,510.29,Single-ply,SBD,M
Boys,124.74,8,Sammy Stephens,Weatherford,116.98,183.7,115.67,181.44,480.81,Single-ply,SBD,M
Boys,124.74,9,Preston Bradham,Aledo,118.98,181.44,122.47,161.03,464.93,Single-ply,SBD,M
Boys,124.74,10,Gavin Edgecomb,Springtown,111.58,204.12,88.45,158.76,451.32,Single-ply,SBD,M
Boys,124.74,11,Jesse Loanis,Fort Worth Boswell,124.74,204.12,90.72,147.42,442.25,Single-ply,SBD,M
Boys,124.74,12,Briley Pena,Granbury,118.39,181.44,79.38,147.42,408.23,Single-ply,SBD,M
Boys,124.74,DQ,Glynn Evans,Azle,111.4,204.12,,,,Single-ply,SBD,M
Boys,124.74,DQ,Colby Lewis,Aledo,110.22,161.03,,151.95,,Single-ply,SBD,M
Boys,124.74+,1,James DeLaRossa,White Settlement Brewer,126.14,263.08,154.22,244.94,662.24,Single-ply,SBD,M
Boys,124.74+,2,Kayson Linehan,Weatherford,136.44,254.01,115.67,222.26,591.94,Single-ply,SBD,M
Boys,124.74+,3,Dj Keastner,White Settlement Brewer,133.72,258.55,122.47,201.85,582.87,Single-ply,SBD,M
Boys,124.74+,4,James Taylor #6,Springtown,142.88,204.12,95.25,204.12,503.49,Single-ply,SBD,M
Boys,124.74+,5,Jordan Gray,Weatherford,128.46,172.37,102.06,163.29,437.72,Single-ply,SBD,M
Boys,124.74+,DQ,Corbin Bullington,Azle,161.03,,,,,Single-ply,SBD,M
Boys,124.74+,DQ,Lincoln Roquemore,Azle,130.86,229.06,115.67,,,Single-ply,SBD,M
Boys,124.74+,DQ,Ld Douglas,Fort Worth Boswell,195.14,,,,,Single-ply,SBD,M
