Place,Name,Sex,Equipment,Division,BodyweightKg,WeightClassKg,Squat1Kg,Squat2Kg,Squat3Kg,Best3SquatKg,Bench1Kg,Bench2Kg,Bench3Kg,Best3BenchKg,Deadlift1Kg,Deadlift2Kg,Deadlift3Kg,Best3DeadliftKg,TotalKg,Event,BirthDate
NS,Jody Long,M,Raw,MR-O,,,,,,,,,,,,,,,,SBD,
NS,Luke Cook,M,Raw,MR-O,,,,,,,,,,,,,,,,SBD,
1,Mohammad Mahin Zafar,M,Raw,MR-O,104.9,105,262.5,285,295,295,152.5,160,165,165,272.5,295,310,310,770,SBD,
2,Aidan Lynn,M,Raw,MR-O,98.2,105,255,272.5,-280,272.5,155,162.5,-167.5,162.5,265,-285,-285,265,700,SBD,
3,James Horn,M,Raw,MR-O,102.5,105,230,240,250,250,145,152.5,157.5,157.5,260,272.5,290,290,697.5,SBD,
4,Aidan Mcnicholas,M,Raw,MR-O,102.1,105,-225,240,-245,240,145,-152.5,152.5,152.5,275,,,275,667.5,SBD,
5,Nicholson Ketala,M,Raw,MR-O,104.4,105,190,210,225,225,135,147.5,-155,147.5,260,285,-305,285,657.5,SBD,
6,Evangelos Daskalakis,M,Raw,MR-O,102,105,200,210,215,215,170,177.5,182.5,182.5,230,240,245,245,642.5,SBD,
7,Ben Seed,M,Raw,MR-O,97.4,105,205,215,220,220,107.5,115,120,120,265,277.5,282.5,282.5,622.5,SBD,
8,John Richardson,M,Raw,MR-O,100.5,105,175,185,195,195,117.5,125,-127.5,125,200,220,225,225,545,SBD,
9,Sam Atkinson,M,Raw,MR-O,100.6,105,170,180,190,190,105,110,-117.5,110,210,225,240,240,540,SBD,
10,Dale Harden,M,Raw,MR-O,100.2,105,135,145,-152.5,145,100,107.5,112.5,112.5,215,230,-240,230,487.5,SBD,
11,Gary Grant,M,Raw,MR-O,103.8,105,-170,170,180,180,100,-110,-110,100,190,200,-210,200,480,SBD,
12,Joseph Asal,M,Raw,MR-O,103.9,105,135,142.5,150,150,110,115,117.5,117.5,180,190,200,200,467.5,SBD,
DQ,Steven Cavanagh,M,Raw,MR-O,102.3,105,210,-230,-230,210,-120,-130,-130,,210,230,-245,230,,SBD,
1,Conner Scarfe,M,Raw,MR-O,110.2,120,-250,250,-260,250,145,152.5,157.5,157.5,270,290,-300,290,697.5,SBD,
2,Rohan Boparai,M,Raw,MR-O,108.7,120,210,220,-235,220,140,150,157.5,157.5,260,275,285,285,662.5,SBD,
3,Damian Manning,M,Raw,MR-O,114.21,120,200,215,220,220,150,160,165,165,220,240,250,250,635,SBD,
4,Kalman Dede,M,Raw,MR-O,115.6,120,190,-205,-205,190,130,140,-150,140,190,200,210,210,540,SBD,
G,Anthony McLaughlin,M,Raw,MR-O,106.1,120,210,225,-240,225,137.5,145,152.5,152.5,-255,265,300,300,677.5,SBD,
1,Darren Scarfe,M,Raw,MR-O,160.2,120+,180,200,225,225,152.5,160,170,170,260,-275,-275,260,655,SBD,
2,Stuart Mosey,M,Raw,MR-O,128.7,120+,202.5,212.5,222.5,222.5,105,115,-122.5,115,200,212.5,-225,212.5,550,SBD,
3,Ashkon Djalili,M,Raw,MR-O,130.6,120+,147.5,152.5,160,160,95,-102.5,102.5,102.5,165,175,187.5,187.5,450,SBD,
NS,Gavin Rafferty,M,Raw,MR-O,,,,,,,,,,,,,,,,B,
1,Chris Baker #1,M,Raw,MR-O,141.9,120+,,,,,135,160,170,170,,,,,170,B,
1,Jay Dela Cruz,M,Raw,MR-O,72.7,74,167.5,180,190,190,105,112.5,120,120,205,-217.5,217.5,217.5,527.5,SBD,
2,Talhah Valli,M,Raw,MR-O,70.3,74,150,157.5,165,165,97.5,105,-107.5,105,192.5,207.5,-220,207.5,477.5,SBD,
3,Theo Stewart,M,Raw,MR-O,73.1,74,-147.5,147.5,-160,147.5,117.5,125,127.5,127.5,182.5,197.5,-212.5,197.5,472.5,SBD,
4,Matthew Wroe,M,Raw,MR-O,73.3,74,137.5,147.5,155,155,-80,85,87.5,87.5,150,160,170,170,412.5,SBD,
5,Harley Crallan,M,Raw,MR-O,69.3,74,120,130,135,135,85,90,95,95,140,150,155,155,385,SBD,
6,Joshua Nesbit,M,Raw,MR-O,73.4,74,-125,-125,125,125,97.5,102.5,107.5,107.5,140,152.5,-162.5,152.5,385,SBD,
7,Alan Zheng,M,Raw,MR-O,71.8,74,120,127.5,135,135,75,77.5,80,80,145,155,165,165,380,SBD,
8,Matthew Culshaw,M,Raw,MR-O,71,74,80,90,95,95,50,55,60,60,100,110,120,120,275,SBD,
DQ,Mario Chilom,M,Raw,MR-O,72.9,74,-185,-185,-190,,95,100,-102.5,100,207.5,215,220,220,,SBD,
1,Oliver Kettleborough,M,Raw,MR-O,81.6,83,190,205,215,215,135,142.5,147.5,147.5,220,232.5,242.5,242.5,605,SBD,
2,Jack Outterside,M,Raw,MR-O,82.5,83,185,197.5,207.5,207.5,95,102.5,-107.5,102.5,230,250,270,270,580,SBD,
3,Arnav Thayur,M,Raw,MR-O,82.8,83,190,197.5,205,205,105,107.5,110,110,220,232.5,-242.5,232.5,547.5,SBD,
4,Nadeem Ahmed,M,Raw,MR-O,78.6,83,175,182.5,187.5,187.5,127.5,130,-132.5,130,-210,217.5,-230,217.5,535,SBD,
5,Myles Foster,M,Raw,MR-O,81.3,83,190,200,-207.5,200,110,115,-117.5,115,207.5,220,,220,535,SBD,
6,James Shackleton,M,Raw,MR-O,82.2,83,190,200,-207.5,200,110,115,-120,115,195,210,217.5,217.5,532.5,SBD,
7,Jack Morley,M,Raw,MR-O,80.1,83,190,200,210,210,90,95,-100,95,190,200,210,210,515,SBD,
8,Samuel Peukert,M,Raw,MR-O,77.4,83,170,177.5,-185,177.5,90,-95,95,95,200,210,220,220,492.5,SBD,
9,Will Heavens,M,Raw,MR-O,79.9,83,140,150,160,160,110,125,-135,125,170,185,200,200,485,SBD,
10,Ben Dawson,M,Raw,MR-O,75.5,83,-137.5,137.5,145,145,95,100,-102.5,100,195,205,-215,205,450,SBD,
11,Max Hutcheon,M,Raw,MR-O,82.2,83,120,130,135,135,115,120,-122.5,120,130,140,150,150,405,SBD,
12,Louis Delamare,M,Raw,MR-O,80.8,83,120,130,-140,130,55,60,-65,60,170,175,180,180,370,SBD,
13,David Lacy,M,Raw,MR-O,77.5,83,75,77.5,82.5,82.5,-47.5,47.5,50,50,87.5,90,95,95,227.5,SBD,
DQ,Ethan Franklin,M,Raw,MR-O,81.9,83,160,-170,-175,160,-105,-115,-117.5,,-170,180,195,195,,SBD,
G,Ryan Edwards,M,Raw,MR-O,78.6,83,100,-102.5,-102.5,100,100,-102.5,-102.5,100,250,-252.5,-252.5,250,450,SBD,
1,Muhammad Bazil Bin Rahimi,M,Raw,MR-O,82.2,83,,,,,115,120,122.5,122.5,,,,,122.5,B,
1,Kingsley Abel,M,Single-ply,M-O,80.6,83,,,,,95,100,107.5,107.5,,,,,107.5,B,
NS,Owen Barker,M,Raw,MR-O,,,,,,,,,,,,,,,,SBD,
1,Joe McCartney,M,Raw,MR-O,65.7,66,190,197.5,-205,197.5,110,115,-117.5,115,227.5,-232.5,-232.5,227.5,540,SBD,
2,Siddharth Kamath,M,Raw,MR-O,65.1,66,150,160,167.5,167.5,82.5,87.5,92.5,92.5,180,192.5,200,200,460,SBD,
3,Tyler Fieldhouse,M,Raw,MR-O,64.8,66,150,-157.5,157.5,157.5,95,100,-105,100,180,190,-205,190,447.5,SBD,
4,Siu Chi Ryan Law,M,Raw,MR-O,63.8,66,120,130,140,140,90,95,-100,95,170,182.5,192.5,192.5,427.5,SBD,
1,Harris Hammam,M,Raw,MR-O,92.5,93,180,190,200,200,140,145,-150,145,225,237.5,255,255,600,SBD,
2,Carl Devine,M,Raw,MR-O,91.8,93,215,230,-237.5,230,142.5,-152.5,-152.5,142.5,205,215,225,225,597.5,SBD,
3,Luke Thompson #1,M,Raw,MR-O,92.3,93,177.5,192.5,200,200,130,137.5,-140,137.5,217.5,237.5,250,250,587.5,SBD,
4,Thomas Yeomans,M,Raw,MR-O,89.2,93,180,190,200,200,140,147.5,152.5,152.5,205,217.5,230,230,582.5,SBD,
5,Andreas Andreou,M,Raw,MR-O,89.4,93,185,197.5,205,205,137.5,145,147.5,147.5,202.5,217.5,230,230,582.5,SBD,
6,Ethan Chatfield,M,Raw,MR-O,90.4,93,165,167.5,175,175,127.5,135,-140,135,225,235,242.5,242.5,552.5,SBD,
7,Christian Vieira,M,Raw,MR-O,91,93,185,195,202.5,202.5,-127.5,127.5,135,135,195,207.5,-215,207.5,545,SBD,
8,Ethan Chung,M,Raw,MR-O,92.9,93,177.5,190,200,200,95,102.5,107.5,107.5,202.5,217.5,230,230,537.5,SBD,
9,Jack Dulson,M,Raw,MR-O,92.4,93,160,172.5,180,180,115,-122.5,127.5,127.5,190,210,225,225,532.5,SBD,
10,Qaif Iqbal,M,Raw,MR-O,88.4,93,150,160,-170,160,95,102.5,-107.5,102.5,210,222.5,-230,222.5,485,SBD,
11,Stephen Christian,M,Raw,MR-O,89.7,93,132.5,145,155,155,100,-110,-110,100,185,200,205,205,460,SBD,
12,Michael Hollingworth,M,Raw,MR-O,89.2,93,-157.5,165,175,175,87.5,92.5,100,100,157.5,172.5,-182.5,172.5,447.5,SBD,
13,Tom Dorrington,M,Raw,MR-O,87.5,93,140,150,160,160,95,100,-102.5,100,155,167.5,180,180,440,SBD,
14,Elliott Vice,M,Raw,MR-O,83.2,93,112.5,117.5,-122.5,117.5,87.5,90,92.5,92.5,120,130,137.5,137.5,347.5,SBD,
DQ,Zain Ahmed,M,Raw,MR-O,92.8,93,-190,-190,-190,,125,127.5,130,130,195,202.5,210,210,,SBD,
1,Michael Evans,M,Raw,MR-O,88.1,93,,,,,102.5,107.5,112.5,112.5,,,,,112.5,B,
1,Michelle Brooke,F,Raw,FR-O,51.6,52,70,75,-77.5,75,40,-42.5,-42.5,40,107.5,112.5,120,120,235,SBD,
1,Guangnan Zhai,F,Raw,FR-O,57,57,95,100,-102.5,100,40,42.5,45,45,107.5,112.5,120,120,265,SBD,
2,Phoebe Mullett,F,Raw,FR-O,56.4,57,77.5,85,-90,85,47.5,-52.5,-52.5,47.5,105,112.5,-125,112.5,245,SBD,
1,Jolanta Akins,F,Raw,FR-O,62.1,63,135,142.5,147.5,147.5,60,-62.5,62.5,62.5,137.5,145,152.5,152.5,362.5,SBD,
2,Jennifer Cox,F,Raw,FR-O,62.3,63,-100,100,105,105,50,52.5,55,55,130,142.5,150,150,310,SBD,
3,Maia Stockwell,F,Raw,FR-O,62.2,63,82.5,90,95,95,62.5,67.5,70,70,115,125,132.5,132.5,297.5,SBD,
1,Stacie Jones,F,Raw,FR-O,68.4,69,155,165,172.5,172.5,97.5,-102.5,-102.5,97.5,155,170,175,175,445,SBD,
2,Jazz Harrison,F,Raw,FR-O,68.3,69,115,122.5,125,125,47.5,52.5,-60,52.5,142.5,152.5,-162.5,152.5,330,SBD,
3,Ellen Jackson,F,Raw,FR-O,67.6,69,85,92.5,100,100,60,65,-70,65,110,117.5,125,125,290,SBD,
4,Karen Horwood,F,Raw,FR-O,66.9,69,62.5,70,-75,70,45,50,-55,50,112.5,120,130,130,250,SBD,
1,Andrea Greaves,F,Raw,FR-O,75.3,76,135,145,150,150,65,-70,70,70,145,160,-170,160,380,SBD,
2,Leah Nichol,F,Raw,FR-O,71.6,76,85,92.5,-100,92.5,52.5,55,60,60,95,105,112.5,112.5,265,SBD,
3,Annette Hawkins,F,Raw,FR-O,73.7,76,75,85,90,90,50,-52.5,52.5,52.5,100,110,120,120,262.5,SBD,
4,Liz Elfleet,F,Raw,FR-O,74.8,76,-77.5,82.5,-85,82.5,40,-42.5,-42.5,40,112.5,120,-127.5,120,242.5,SBD,
1,Aaliyah Unia,F,Raw,FR-O,82.4,84,122.5,130,135,135,60,65,-67.5,65,172.5,180,-182.5,180,380,SBD,
2,Sarah Willis-Worthington,F,Raw,FR-O,80.9,84,125,135,142.5,142.5,67.5,75,-80,75,132.5,142.5,150,150,367.5,SBD,
G,Victoria Radcliffe,F,Raw,FR-O,77.7,84,110,117.5,125,125,67.5,72.5,75,75,145,160,170,170,370,SBD,
1,Megan Reilly #3,F,Raw,FR-O,91.1,84+,132.5,142.5,150,150,65,70,-72.5,70,135,145,157.5,157.5,377.5,SBD,
2,Gabby Calvert,F,Raw,FR-O,107.8,84+,120,127.5,132.5,132.5,47.5,52.5,-57.5,52.5,115,125,132.5,132.5,317.5,SBD,
DQ,Lydia Noble,F,Raw,FR-O,104,84+,135,140,145,145,-85,-90,-90,,135,147.5,155,155,,SBD,
