Place,Name,Division,Equipment,Event,BirthDate,BirthYear,Sex,BodyweightKg,WeightClassKg,Bench1Kg,Bench2Kg,Bench3Kg,Best3BenchKg,TotalKg
1,Pauline Varnerot,Sub-Juniors,Raw,B,,2006,F,51.58,52,57.5,60,-62.5,60,60
2,Cassandre Loiseau,Sub-Juniors,Raw,B,,2006,F,49.08,52,55,57.5,-60,57.5,57.5
1,Erine Paquin,Sub-Juniors,Raw,B,,2008,F,52.82,57,62.5,67.5,-70.5,67.5,67.5
2,Maëlys Megia,Sub-Juniors,Raw,B,,2006,F,53.53,57,60,-65,65,65,65
3,Leane Cordier,Sub-Juniors,Raw,B,,2007,F,52.02,57,45,47.5,-50,47.5,47.5
1,Eliza Grandcoin,Sub-Juniors,Raw,B,,2007,F,62.51,63,70,75,-80,75,75
2,Marie Massimi,Sub-Juniors,Raw,B,,2006,F,62.46,63,60,65,-70,65,65
3,Ines Muller,Sub-Juniors,Raw,B,,2006,F,61.61,63,-62.5,-62.5,62.5,62.5,62.5
4,Ella Colard,Sub-Juniors,Raw,B,,2006,F,60.74,63,52.5,57.5,-60,57.5,57.5
1,Leina Tazammourt,Sub-Juniors,Raw,B,,2007,F,63.79,69,58,62.5,65.5,65.5,65.5
2,Eva Sanitate,Sub-Juniors,Raw,B,,2007,F,68.06,69,57.5,60,63,63,63
3,Maelenn Pruvot,Sub-Juniors,Raw,B,,2006,F,64.96,69,55,-57.5,-60,55,55
1,Emilie Coment,Sub-Juniors,Raw,B,,2007,F,79.68,84,65,70,75,75,75
1,Aubin Burgaud-Pacaud,Sub-Juniors,Raw,B,,2006,M,51.02,53,62.5,65,70,70,70
1,Jad Ouasli Petitjean,Sub-Juniors,Raw,B,,2007,M,58.92,59,108,-115.5,-115.5,108,108
1,Dari Hamadouche,Sub-Juniors,Raw,B,,2006,M,64.88,66,100,107.5,110,110,110
2,Shawn Gillot,Sub-Juniors,Raw,B,,2007,M,64.86,66,95,100,-105,100,100
3,Lilo Niochet,Sub-Juniors,Raw,B,,2007,M,65.27,66,95,100,-105,100,100
4,Matyss Lefizelier,Sub-Juniors,Raw,B,,2007,M,65.62,66,95,100,-102.5,100,100
5,Matteo Lamour,Sub-Juniors,Raw,B,,2006,M,64.84,66,-82.5,87.5,95,95,95
6,Eduard Berki,Sub-Juniors,Raw,B,,2006,M,65.37,66,-95,95,-105,95,95
7,Ethan De Coninck Zulemaro,Sub-Juniors,Raw,B,,2006,M,63.28,66,-80,82.5,-87.5,82.5,82.5
1,Kevan Bataille,Sub-Juniors,Raw,B,,2006,M,73.7,74,117.5,122.5,127.5,127.5,127.5
2,Mathis Gilligmann,Sub-Juniors,Raw,B,,2007,M,71.93,74,115,120,-125,120,120
3,Paul Le Bec,Sub-Juniors,Raw,B,,2006,M,72.13,74,-97.5,97.5,-105,97.5,97.5
1,Thomas Billoir,Sub-Juniors,Raw,B,,2006,M,77.16,83,-145,-145,145,145,145
2,Lemmy Lara Carrasco,Sub-Juniors,Raw,B,,2006,M,81.07,83,122.5,127.5,130,130,130
3,Willy Rachez,Sub-Juniors,Raw,B,,2006,M,78.33,83,120,127.5,-132.5,127.5,127.5
4,Ethan Boussemaere,Sub-Juniors,Raw,B,,2006,M,78.37,83,100,102.5,105,105,105
5,Arda Ustun,Sub-Juniors,Raw,B,,2006,M,77.27,83,-100,100,-105,100,100
DQ,Lucas Hendoux,Sub-Juniors,Raw,B,,2006,M,80.92,83,-135,-135,-135,,
1,Louis Bahy,Sub-Juniors,Raw,B,,2007,M,90.15,93,140,-145,-150,140,140
1,Mateo Philippe,Sub-Juniors,Raw,B,,2006,M,99.94,105,115,-120,-120,115,115
1,Eloïse Bastien,Juniors,Raw,B,,2002,F,41.58,43,55,60,-63,60,60
2,Kelly Bastos,Juniors,Raw,B,,2002,F,42.52,43,42.5,45,-50,45,45
1,Mathilde Casanova,Juniors,Raw,B,,2002,F,46.92,47,-65,65,-72.5,65,65
2,Mélina Coimet,Juniors,Raw,B,,2001,F,46.78,47,52.5,55,-57.5,55,55
3,Coralie Turquet,Juniors,Raw,B,,2005,F,45.73,47,47.5,-50,50,50,50
1,Ines Herbaux,Juniors,Raw,B,,2003,F,51.89,52,-82.5,82.5,90,90,90
2,Laura David,Juniors,Raw,B,,2005,F,51.58,52,77.5,80,-83,80,80
3,Margot Herve,Juniors,Raw,B,,2001,F,51.6,52,67.5,72.5,75,75,75
4,Juliette Riviere,Juniors,Raw,B,,2004,F,51.66,52,70,75,-77.5,75,75
5,Zélie Nubul,Juniors,Raw,B,,2003,F,49.92,52,65,70,-75,70,70
6,Ines Riviere,Juniors,Raw,B,,2003,F,51.42,52,65,70,-75,70,70
7,Manon Gasquy,Juniors,Raw,B,,2004,F,51.37,52,62.5,67.5,-72.5,67.5,67.5
8,Laurène Mingot,Juniors,Raw,B,,2005,F,52,52,60,65,-67.5,65,65
9,Eva Loevenbruck,Juniors,Raw,B,,2004,F,50.78,52,57.5,60,-62.5,60,60
1,Océane Jacouton,Juniors,Raw,B,,2003,F,56.76,57,80,85,-90,85,85
2,Léna Magnol,Juniors,Raw,B,,2004,F,54.42,57,65,70,72.5,72.5,72.5
3,Lisa Goll,Juniors,Raw,B,,2001,F,56.35,57,67.5,-72.5,72.5,72.5,72.5
4,Laura Dosnon,Juniors,Raw,B,,2005,F,55.72,57,62.5,70,-75,70,70
5,Leia Charte,Juniors,Raw,B,,2003,F,56.45,57,62.5,67.5,-70,67.5,67.5
6,Clara Libot,Juniors,Raw,B,,2004,F,56.42,57,-60,62.5,65,65,65
7,Meline Delaviere-Delion,Juniors,Raw,B,,2005,F,56.03,57,55,57.5,62.5,62.5,62.5
8,Margaux Chapin,Juniors,Raw,B,,2001,F,52.97,57,57.5,60,-62.5,60,60
9,Oriane Garnon,Juniors,Raw,B,,2005,F,56.12,57,55,60,-65,60,60
10,Noemi Rouvier,Juniors,Raw,B,,2001,F,55.81,57,50,-55,-57.5,50,50
1,Marine Peltret,Juniors,Raw,B,,2002,F,61.93,63,92.5,98,100,100,100
2,Elodie Picazo,Juniors,Raw,B,,2004,F,58.44,63,92.5,97.5,-99.5,97.5,97.5
3,Jeanne Lhertere,Juniors,Raw,B,,2004,F,62.16,63,82.5,85,87.5,87.5,87.5
4,Graca Maria Sousa,Juniors,Raw,B,,2002,F,62.49,63,72.5,77.5,-82.5,77.5,77.5
5,Charlotte Pichon,Juniors,Raw,B,,2002,F,62.96,63,57.5,62.5,67.5,67.5,67.5
6,Lola Mas,Juniors,Raw,B,,2002,F,59.2,63,57.5,62.5,65,65,65
7,Matilde Maurutto,Juniors,Raw,B,,2002,F,61.24,63,-57.5,57.5,60,60,60
1,Sarah Daval,Juniors,Raw,B,,2003,F,68.42,69,80,85,-90,85,85
2,Pauline Borneque,Juniors,Raw,B,,2001,F,67.1,69,82.5,-87.5,-87.5,82.5,82.5
3,Elisa Lauruol,Juniors,Raw,B,,2002,F,67.93,69,77.5,-80,-85,77.5,77.5
4,Ilona Lasserve,Juniors,Raw,B,,2002,F,64.85,69,72.5,75,-80,75,75
5,Coline Bonnet,Juniors,Raw,B,,2003,F,66.76,69,65,70,-75,70,70
6,Lisa Gavard,Juniors,Raw,B,,2004,F,67.41,69,62.5,67.5,70,70,70
7,Héloïse Couloumies,Juniors,Raw,B,,2001,F,65.96,69,62.5,67.5,-72.5,67.5,67.5
8,Majdouline Bellanger,Juniors,Raw,B,,2001,F,67.69,69,67.5,-72.5,-72.5,67.5,67.5
9,Eva Verger,Juniors,Raw,B,,2002,F,67.76,69,65,-70,-70,65,65
1,Léna Chapuis,Juniors,Raw,B,,2003,F,73.48,76,95,97.5,102.5,102.5,102.5
2,Elizisa Joncour,Juniors,Raw,B,,2003,F,73.51,76,90,92.5,-100,92.5,92.5
3,Zelie Ako,Juniors,Raw,B,,2004,F,73.93,76,80,82.5,-90,82.5,82.5
4,Clotilde Girard,Juniors,Raw,B,,2001,F,73.86,76,70,75,-80,75,75
5,Nolwenn Le Douarin,Juniors,Raw,B,,2005,F,69.76,76,65,-70,-70,65,65
1,Mélina Behava,Juniors,Raw,B,,2001,F,82.51,84,87.5,92.5,-97.5,92.5,92.5
2,Emma Sentenac,Juniors,Raw,B,,2002,F,79.7,84,80,85,-90,85,85
3,Azéna Vildaer,Juniors,Raw,B,,2005,F,83.19,84,67.5,75,-80,75,75
1,Killian Valette,Juniors,Raw,B,,2002,M,52.75,53,102.5,107.5,110,110,110
1,Sylvain Nguyen Van Sang,Juniors,Raw,B,,2001,M,58.84,59,125,128.5,130,130,130
2,Hilaire Proskuryn,Juniors,Raw,B,,2001,M,58.1,59,122.5,-128,-129,122.5,122.5
3,Giovanni Cortesi,Juniors,Raw,B,,2003,M,58.48,59,117.5,122.5,-125,122.5,122.5
4,Steven Chatelard,Juniors,Raw,B,,2002,M,58.15,59,107.5,112.5,-115,112.5,112.5
5,Urbain Huchet,Juniors,Raw,B,,2005,M,58.93,59,112.5,-117.5,-117.5,112.5,112.5
6,Luigi Bichon,Juniors,Raw,B,,2003,M,58.97,59,95,102.5,105,105,105
1,Arthur Hauet,Juniors,Raw,B,,2001,M,65.98,66,-142.5,142.5,150,150,150
2,Killian Vasseur,Juniors,Raw,B,,2001,M,65.96,66,130,135,-142.5,135,135
3,Teoman Turgut,Juniors,Raw,B,,2002,M,65.04,66,115,125,-135,125,125
4,Rémi Moulin,Juniors,Raw,B,,2001,M,64.05,66,112.5,117.5,-125,117.5,117.5
5,Hugo Sourd De Villodon,Juniors,Raw,B,,2002,M,64.84,66,112.5,117.5,-122.5,117.5,117.5
6,Tom Busuttil,Juniors,Raw,B,,2002,M,65.62,66,112.5,117.5,-122.5,117.5,117.5
7,Hugo Dufly,Juniors,Raw,B,,2001,M,65.68,66,112.5,117.5,-122.5,117.5,117.5
8,Arthur Chan Lock,Juniors,Raw,B,,2003,M,64.77,66,100,107.5,-110,107.5,107.5
9,Alexis Nollet,Juniors,Raw,B,,2002,M,65.39,66,107.5,-112.5,-115,107.5,107.5
1,Matthys Parizot,Juniors,Raw,B,,2002,M,73.37,74,155,160,-165,160,160
2,Mathis Bayle,Juniors,Raw,B,,2004,M,71.77,74,145,150,155,155,155
3,Romain Ralaiarinosy,Juniors,Raw,B,,2002,M,70.98,74,140,145,150,150,150
4,Lorenzo Capillo,Juniors,Raw,B,,2001,M,74,74,142.5,150,-155,150,150
5,Romain Pipart,Juniors,Raw,B,,2005,M,70.87,74,140,145,-150,145,145
6,Malo Bonhomme,Juniors,Raw,B,,2001,M,70,74,130,137.5,-142.5,137.5,137.5
7,Jeremy Besnard,Juniors,Raw,B,,2003,M,72.88,74,125,132.5,135,135,135
8,Bastien Heaulme,Juniors,Raw,B,,2003,M,72.88,74,120,130,135,135,135
9,Clément Lomberget,Juniors,Raw,B,,2002,M,73.65,74,-132.5,132.5,-137.5,132.5,132.5
10,Clarence Goubert,Juniors,Raw,B,,2004,M,71.75,74,117.5,125,130,130,130
11,Guillaume Jouan,Juniors,Raw,B,,2004,M,73.04,74,130,-135,-135,130,130
12,Maxime Catrice,Juniors,Raw,B,,2003,M,73.28,74,122.5,130,-137.5,130,130
13,Ugo Tricas,Juniors,Raw,B,,2003,M,73.79,74,-130,130,-135,130,130
14,Pierre Combes,Juniors,Raw,B,,2001,M,73.44,74,117.5,127.5,-130,127.5,127.5
15,Milan Just,Juniors,Raw,B,,2004,M,73.45,74,127.5,-132.5,-135,127.5,127.5
16,Mathias Fournier,Juniors,Raw,B,,2004,M,69.07,74,110,117.5,125,125,125
17,Gaetan Loisel,Juniors,Raw,B,,2003,M,72.47,74,120,-122.5,125,125,125
18,Hippolyte Baudry,Juniors,Raw,B,,2001,M,73.22,74,-120,-125,125,125,125
19,Allan Fernandes,Juniors,Raw,B,,2005,M,72.79,74,115,122.5,-127.5,122.5,122.5
20,Jean-Baptiste Causse,Juniors,Raw,B,,2002,M,72.89,74,-122.5,122.5,-130,122.5,122.5
21,Martin Renou,Juniors,Raw,B,,2003,M,73.14,74,117.5,122.5,-125,122.5,122.5
22,Benoît Lagré,Juniors,Raw,B,,2001,M,71.82,74,120,-125,-125,120,120
23,Alexandre Pruvost,Juniors,Raw,B,,2002,M,73.49,74,-120,120,-122.5,120,120
24,Alexis Deregnaucourt,Juniors,Raw,B,,2002,M,73.88,74,110,120,-125,120,120
25,Baptiste Charollois,Juniors,Raw,B,,2002,M,71.05,74,-117.5,117.5,-127.5,117.5,117.5
26,Arthur Renou,Juniors,Raw,B,,2005,M,69.37,74,110,115,-120,115,115
DQ,Nacim Belaid,Juniors,Raw,B,,2002,M,71,74,-130,-130,-130,,
G,Junior Eric Yameundjeu Titcheu,Juniors,Raw,B,,2003,M,70.21,74,115,120,-125,120,120
1,Thomas Czaplicki,Juniors,Raw,B,,2001,M,82.29,83,160,170,175,175,175
2,Célian Olivier,Juniors,Raw,B,,2005,M,82.45,83,160,-170,170,170,170
3,Issam Si Ali,Juniors,Raw,B,,2001,M,82.59,83,160,-167.5,167.5,167.5,167.5
4,Morgan Mascaro,Juniors,Raw,B,,2001,M,81.8,83,160,165,-170,165,165
5,Arthur Bris,Juniors,Raw,B,,2002,M,76.18,83,152.5,-160,160,160,160
6,Lucas Chassin,Juniors,Raw,B,,2002,M,79.71,83,150,155,160,160,160
7,Orphéas Georgiou,Juniors,Raw,B,,2001,M,81.05,83,155,-160,-160,155,155
8,Alexis Postic,Juniors,Raw,B,,2001,M,82.1,83,145,152.5,-157.5,152.5,152.5
9,Louis Alzaix,Juniors,Raw,B,,2001,M,82.65,83,147.5,-152.5,152.5,152.5,152.5
10,Sacha Le Rouzo,Juniors,Raw,B,,2005,M,82.17,83,140,145,150,150,150
11,Mathias Gayet,Juniors,Raw,B,,2003,M,82.27,83,140,150,-157.5,150,150
12,Simon Morbu,Juniors,Raw,B,,2003,M,82.52,83,142.5,150,-155,150,150
13,Mathis Karoudjian,Juniors,Raw,B,,2004,M,82.68,83,142.5,150,-152.5,150,150
14,Romain Duprat,Juniors,Raw,B,,2005,M,81.75,83,-142.5,-147.5,147.5,147.5,147.5
15,Martin Latassa,Juniors,Raw,B,,2003,M,82.67,83,140,147.5,-152.5,147.5,147.5
16,Paul Antoine,Juniors,Raw,B,,2003,M,79.66,83,145,-152.5,-157.5,145,145
17,Victor Roubaud,Juniors,Raw,B,,2002,M,81.22,83,-140,140,145,145,145
18,Samuel Legaillard,Juniors,Raw,B,,2002,M,82.54,83,140,145,-147.5,145,145
19,Lucas Pinel,Juniors,Raw,B,,2002,M,80.42,83,140,-145,-145,140,140
20,Louis Jean,Juniors,Raw,B,,2001,M,81.97,83,140,-145,-150,140,140
21,Noha Bellal,Juniors,Raw,B,,2004,M,82.65,83,132.5,137.5,140,140,140
22,Leo Dufort,Juniors,Raw,B,,2001,M,81.32,83,132.5,137.5,-140,137.5,137.5
23,Thomas Valentini,Juniors,Raw,B,,2003,M,81.8,83,135,-137.5,137.5,137.5,137.5
24,Louis Carlier,Juniors,Raw,B,,2003,M,82.27,83,-137.5,-137.5,137.5,137.5,137.5
25,Axel Potier,Juniors,Raw,B,,2003,M,81.84,83,130,135,-137.5,135,135
26,Alex Faure,Juniors,Raw,B,,2003,M,82.13,83,130,135,-137.5,135,135
DQ,Yanis Le Jeune,Juniors,Raw,B,,2002,M,82.3,83,-132.5,-132.5,-140,,
DQ,Kyliann Valentini,Juniors,Raw,B,,2002,M,79.64,83,-157.5,-157.5,-157.5,,
1,Alexandre Barsanti,Juniors,Raw,B,,2001,M,91.27,93,180,-185,-185,180,180
2,Samy Agourd,Juniors,Raw,B,,2002,M,92.32,93,167.5,-175,175,175,175
3,Ayrton Mottet,Juniors,Raw,B,,2003,M,92.21,93,150,155,-165,155,155
4,Rémi Chareyron,Juniors,Raw,B,,2003,M,92.66,93,145,150,-157.5,150,150
1,Alan Baron,Juniors,Raw,B,,2003,M,103.61,105,185,195,-200,195,195
2,Benoit Soares,Juniors,Raw,B,,2001,M,104.85,105,145,155,162.5,162.5,162.5
3,Alexandre Pollet,Juniors,Raw,B,,2003,M,102.87,105,145,-155,-160,145,145
1,Logan Charbonnier,Juniors,Raw,B,,2001,M,114.35,120,172.5,180,-187.5,180,180
2,Matéo Constant,Juniors,Raw,B,,2001,M,107.42,120,175,-182.5,-187.5,175,175
1,Mehdi Bekkhaled,Juniors,Raw,B,,2004,M,143.45,120+,180,192.5,-205.5,192.5,192.5
1,Enola Briand,Open,Raw,B,,1999,F,46.51,47,55,57.5,-60,57.5,57.5
2,Lenaïg Celle,Open,Raw,B,,1998,F,46.39,47,50,55,-57.5,55,55
1,Cassandre Olivier,Open,Raw,B,,2007,F,51.69,52,75,-80,82.5,82.5,82.5
2,Laurie Piosik,Open,Raw,B,,1994,F,51.54,52,60,65,-67.5,65,65
3,Clémentine Gerard,Open,Raw,B,,1998,F,51.29,52,-55,55,-62.5,55,55
1,Alison Huet,Open,Raw,B,,1996,F,55.2,57,97.5,102.5,-108,102.5,102.5
2,Alizée Roux,Open,Raw,B,,1995,F,55.5,57,-95,95,-100,95,95
3,Anaïs Gissy,Open,Raw,B,,1997,F,56.28,57,80,85,-90,85,85
4,Laura Delcant,Open,Raw,B,,1999,F,55.95,57,77.5,82.5,-85,82.5,82.5
5,Barbara Santos De Almeida,Open,Raw,B,,1997,F,55.21,57,-75,80,-85,80,80
6,Lucie Rousselot,Open,Raw,B,,1999,F,56.03,57,72.5,77.5,-80,77.5,77.5
7,Lucile Martin,Open,Raw,B,,1996,F,56.59,57,70,75,-80,75,75
8,Sarah Fourniols,Open,Raw,B,,1999,F,56,57,55,60,-62.5,60,60
9,Laetitia Montero,Open,Raw,B,,1996,F,56.23,57,-60,60,-65,60,60
10,Maurine Jaffré,Open,Raw,B,,1996,F,56.72,57,52.5,-57.5,-57.5,52.5,52.5
DQ,Lorraine Balbiani,Open,Raw,B,,1995,F,56.53,57,-95,-95,-95,,
1,Ludivine Charles,Open,Raw,B,,1993,F,62.15,63,92.5,97.5,102.5,102.5,102.5
2,Manon Cadieu,Open,Raw,B,,1998,F,59.39,63,-85,-85,87.5,87.5,87.5
3,Justine Hattou,Open,Raw,B,,2000,F,60.55,63,80,85,87.5,87.5,87.5
4,Mélodie Anthouard,Open,Raw,B,,1988,F,61.41,63,85,-92.5,-92.5,85,85
5,Charlène Cotteret,Open,Raw,B,,1991,F,59.81,63,75,80,82.5,82.5,82.5
6,Julie Godinot,Open,Raw,B,,1999,F,61.03,63,77.5,82.5,-87.5,82.5,82.5
7,Eva Rio,Open,Raw,B,,1998,F,62.82,63,72.5,77.5,82.5,82.5,82.5
8,Manon Gaborit,Open,Raw,B,,2000,F,62.58,63,75,80,-85,80,80
9,Louise Dutertre,Open,Raw,B,,1994,F,62.65,63,75,77.5,80,80,80
10,Léa Lambert #1,Open,Raw,B,,2000,F,62.73,63,72.5,77.5,80,80,80
11,Julie Bredolese,Open,Raw,B,,1989,F,60.97,63,77.5,-82.5,-82.5,77.5,77.5
12,Garance Blondel,Open,Raw,B,,2000,F,62.59,63,72.5,77.5,-82.5,77.5,77.5
13,Lisa Plancq,Open,Raw,B,,1995,F,62.9,63,75,-77.5,-77.5,75,75
14,Louise Grimberg,Open,Raw,B,,1999,F,61.63,63,70,72.5,-75,72.5,72.5
15,Amélie Perry,Open,Raw,B,,1996,F,62.34,63,72.5,-77.5,-80,72.5,72.5
16,Alix Chauvat-Svankham,Open,Raw,B,,2000,F,62.34,63,67.5,72.5,-75,72.5,72.5
17,Margaux Barbin,Open,Raw,B,,1991,F,62.76,63,67.5,72.5,-77.5,72.5,72.5
18,Marine Celse,Open,Raw,B,,1995,F,59,63,65,67.5,70,70,70
19,Amandine Hureaux,Open,Raw,B,,1993,F,62.51,63,60,65,70,70,70
20,Joanna Touitou,Open,Raw,B,,1996,F,61.12,63,60,62.5,65,65,65
21,Maëva Espagnol,Open,Raw,B,,1997,F,62.75,63,60,65,-70,65,65
1,Ludivine Delos,Open,Raw,B,,2000,F,68.83,69,95,100,102.5,102.5,102.5
2,Camille Pailha,Open,Raw,B,,1999,F,64.83,69,92.5,97.5,-100,97.5,97.5
3,Emilie Clavier,Open,Raw,B,,1979,F,67.22,69,92.5,97.5,-102.5,97.5,97.5
4,Clarisse Gomis,Open,Raw,B,,1988,F,67.24,69,80,85,87.5,87.5,87.5
5,Jennifer De Campos,Open,Raw,B,,1991,F,68.55,69,80,85,-90,85,85
6,Malaurie Ducrot,Open,Raw,B,,1999,F,66.68,69,-80,80,82.5,82.5,82.5
7,Camille Ducrocq,Open,Raw,B,,1993,F,68.11,69,-75,-80,80,80,80
8,Léa Farigoule,Open,Raw,B,,1999,F,68.58,69,75,80,-82.5,80,80
9,Philae Falchi,Open,Raw,B,,1999,F,68.78,69,70,75,80,80,80
10,Estelle Choque,Open,Raw,B,,1992,F,66.02,69,70,75,77.5,77.5,77.5
11,Emma Pradet,Open,Raw,B,,2000,F,65.35,69,70,72.5,75,75,75
12,Eloïse Duval,Open,Raw,B,,2000,F,67.34,69,67.5,72.5,75,75,75
DQ,Inès Marius,Open,Raw,B,,1989,F,68.91,69,-100,-100,-102.5,,
1,Ludivine Leroy,Open,Raw,B,,2000,F,74.75,76,77.5,82.5,-85,82.5,82.5
2,Laetitia Brize,Open,Raw,B,,1990,F,75.03,76,75,80,-85,80,80
G,Laura Mautalen,Open,Raw,B,,2000,F,74.6,76,115,120,125,125,125
1,Christelle Mouandjo,Open,Raw,B,,1996,F,83.61,84,85,90,-92.5,90,90
G,Stéphanie Faivre,Open,Raw,B,,1983,F,80.45,84,110,115,120,120,120
1,Kufoy Ly,Open,Raw,B,,1996,M,58.16,59,130,137.5,-140.5,137.5,137.5
2,William Rezaee,Open,Raw,B,,1984,M,58.34,59,120,125,-128.5,125,125
3,Johann Petot,Open,Raw,B,,1998,M,59,59,-105,110,115,115,115
1,Jason Nativel,Open,Raw,B,,1995,M,65.64,66,160,165,-175.5,165,165
2,Florian Nativel,Open,Raw,B,,1998,M,65.88,66,150,157.5,-165,157.5,157.5
3,Baptiste Grelier,Open,Raw,B,,1996,M,65.27,66,125,132.5,-137.5,132.5,132.5
4,Thomas Lemarchand,Open,Raw,B,,1988,M,65.76,66,130,-135,-135,130,130
5,Florent Rouillon,Open,Raw,B,,1990,M,64.84,66,120,127.5,-130,127.5,127.5
DQ,Raphael Pereira,Open,Raw,B,,1998,M,66,66,-142.5,-142.5,-145,,
1,Constant Mawoung,Open,Raw,B,,1998,M,73.15,74,165,170,-175,170,170
2,Alexandre Brient,Open,Raw,B,,2000,M,73.21,74,157.5,165,-172.5,165,165
3,Maxime Gruau,Open,Raw,B,,1998,M,73.22,74,152.5,157.5,160,160,160
4,Daniel Nguyen #3,Open,Raw,B,,1994,M,73.55,74,160,-165,-167.5,160,160
5,Jordan Beautour,Open,Raw,B,,1998,M,73.89,74,155,160,-165,160,160
6,Jules Guillaume,Open,Raw,B,,2000,M,71.5,74,140,147.5,152.5,152.5,152.5
7,Arnaud Taupin,Open,Raw,B,,1986,M,73.19,74,150,-155,-155,150,150
8,Nicolas Thely,Open,Raw,B,,1995,M,73.73,74,-142.5,142.5,150,150,150
9,Jaison Gillot,Open,Raw,B,,1999,M,72.88,74,142.5,147.5,-150,147.5,147.5
10,Alexandre Lechene,Open,Raw,B,,1999,M,73.64,74,142.5,147.5,-152.5,147.5,147.5
1,Mehdi Baali,Open,Raw,B,,1999,M,82.21,83,177.5,182.5,185,185,185
2,Anthony Costarigot,Open,Raw,B,,1998,M,82.66,83,177.5,182.5,-187.5,182.5,182.5
3,Vichet Duong,Open,Raw,B,,1993,M,82.65,83,165,-175,177.5,177.5,177.5
4,Kevin Grare,Open,Raw,B,,2000,M,81.97,83,165,172.5,-177.5,172.5,172.5
5,Kévin Batista,Open,Raw,B,,1991,M,82.54,83,160,165,167.5,167.5,167.5
6,Corentin Latour,Open,Raw,B,,1995,M,82.45,83,155,165,-170,165,165
7,Kevin Petit Jean,Open,Raw,B,,1993,M,81,83,162.5,-170,-170,162.5,162.5
8,Jérémy Mateo,Open,Raw,B,,1995,M,78.06,83,152.5,160,-165,160,160
1,Léo Ottinger,Open,Raw,B,,2000,M,91.84,93,-215,215,222.5,222.5,222.5
2,Thomas Houpert,Open,Raw,B,,1990,M,87.46,93,187.5,195,-200,195,195
3,Adrien Lazarov,Open,Raw,B,,1995,M,92.14,93,185,195,-202.5,195,195
4,Gaël Chapuis,Open,Raw,B,,1997,M,92.45,93,187.5,-195,-195,187.5,187.5
5,Paul Desirand,Open,Raw,B,,2000,M,90.21,93,175,182.5,-190,182.5,182.5
1,Théophile Lé,Open,Raw,B,,1991,M,103.45,105,222.5,-225,-230,222.5,222.5
2,Henry Claude Gilles,Open,Raw,B,,1995,M,104.11,105,207.5,217.5,-223,217.5,217.5
3,Arnaud Piette,Open,Raw,B,,1998,M,104.08,105,210,215,-220,215,215
4,Clément Goujon,Open,Raw,B,,1994,M,103.83,105,200,207.5,-210,207.5,207.5
5,Grégoire Muscat,Open,Raw,B,,2000,M,102.35,105,185,-190,190,190,190
6,Kevin Allais,Open,Raw,B,,1992,M,100.96,105,185,-192.5,-192.5,185,185
7,Alexandre Roubaud,Open,Raw,B,,1989,M,104.38,105,180,-185,-185,180,180
DQ,Richard Bertho,Open,Raw,B,,1981,M,103.25,105,-215,-215,-215,,
1,Kévin D'Heer,Open,Raw,B,,1989,M,118.95,120,230,237.5,-243,237.5,237.5
2,Dimitri Bonnay,Open,Raw,B,,1982,M,117.4,120,212.5,220,-225,220,220
3,Benjy Vincent,Open,Raw,B,,1997,M,119.67,120,212.5,220,-222.5,220,220
4,Victor Tirebaque,Open,Raw,B,,1995,M,112.18,120,-202.5,207.5,215,215,215
5,Charly Boucher,Open,Raw,B,,1996,M,119.41,120,205,215,-220,215,215
6,Virgile Mourrain,Open,Raw,B,,1997,M,119.71,120,205,215,-225,215,215
7,Clément Gomez,Open,Raw,B,,2000,M,118.47,120,197.5,-207.5,-207.5,197.5,197.5
1,Romuald Massé,Open,Raw,B,,1992,M,143.84,120+,225,235,245,245,245
2,Tommy Teheura,Open,Raw,B,,1997,M,147.58,120+,-245,-245,245,245,245
3,Tario Teraiharoa,Open,Raw,B,,1981,M,191,120+,220,227.5,235,235,235
1,Nadège Barrere,Masters 1,Raw,B,,1979,F,55.34,57,65,70,72.5,72.5,72.5
1,Mélisa Meunier,Masters 1,Raw,B,,1975,F,60,63,70,-72.5,-72.5,70,70
2,Marie Michaud,Masters 1,Raw,B,,1980,F,61.54,63,55,60,-62.5,60,60
1,Stephanie Duboux,Masters 1,Raw,B,,1976,F,74.5,76,80,85,87.5,87.5,87.5
G,Habit Nezamabadi,Masters 1,Raw,B,,1981,F,62.92,63,-70,70,-75,70,70
1,François Merland,Masters 1,Raw,B,,1984,M,65.62,66,115,120,122.5,122.5,122.5
2,Thierry Dugout,Masters 1,Raw,B,,1983,M,65.1,66,-105,105,-110,105,105
1,John Brusco,Masters 1,Raw,B,,1978,M,73.8,74,-147.5,147.5,155,155,155
2,Guillaume Faucher,Masters 1,Raw,B,,1983,M,73.86,74,130,137.5,140,140,140
3,Thomas Verdoucq,Masters 1,Raw,B,,1977,M,70.14,74,135,-137.5,-137.5,135,135
4,Laurent Gautier,Masters 1,Raw,B,,1976,M,72.84,74,122.5,127.5,-130,127.5,127.5
5,Loïc Lahaye,Masters 1,Raw,B,,1975,M,74,74,115,-117.5,-117.5,115,115
DQ,Franck Dezoteux,Masters 1,Raw,B,,1975,M,68.34,74,-130,-130,-135,,
1,Florent Lenglet,Masters 1,Raw,B,,1979,M,82.59,83,170,177.5,-180,177.5,177.5
2,Ludovic Desbiens,Masters 1,Raw,B,,1984,M,82.42,83,152.5,157.5,160,160,160
3,Christian Malonga,Masters 1,Raw,B,,1981,M,81.74,83,150,155,157.5,157.5,157.5
4,Sébastien Martinez,Masters 1,Raw,B,,1983,M,80.99,83,145,-150,155,155,155
5,Thomas Dosnon,Masters 1,Raw,B,,1979,M,81.45,83,140,142.5,-152.5,142.5,142.5
1,Julien Idier,Masters 1,Raw,B,,1982,M,92.23,93,170,172.5,177.5,177.5,177.5
2,Bruno Carre,Masters 1,Raw,B,,1982,M,90.01,93,157.5,167.5,175,175,175
1,Guillaume Percheron,Masters 1,Raw,B,,1979,M,104.65,105,165,172.5,180,180,180
2,Yohann Martins,Masters 1,Raw,B,,1982,M,105,105,170,175,180,180,180
3,Nicolas Gervois,Masters 1,Raw,B,,1979,M,103.91,105,170,172.5,-175,172.5,172.5
4,Manuel Waschinger,Masters 1,Raw,B,,1978,M,104.37,105,165,170,-172.5,170,170
5,Cédric Puchard,Masters 1,Raw,B,,1984,M,104.41,105,157.5,-165,-172.5,157.5,157.5
1,Djanny Wong Hen,Masters 1,Raw,B,,1983,M,117.73,120,180,-190,192.5,192.5,192.5
2,Jérémy Garnier,Masters 1,Raw,B,,1982,M,118.62,120,175,185,192.5,192.5,192.5
1,Tario Teraiharoa,Masters 1,Raw,B,,1981,M,191.7,120+,220,230,237.5,237.5,237.5
2,David Hernandez,Masters 1,Raw,B,,1981,M,152.54,120+,-210,210,-220,210,210
1,Géraldine Verlaine,Masters 2,Raw,B,,1970,F,50.8,52,67.5,70,72.5,72.5,72.5
1,Sylvie Mingot,Masters 2,Raw,B,,1969,F,56.63,57,77.5,-82.5,82.5,82.5,82.5
2,Marie Laure Bregere,Masters 2,Raw,B,,1974,F,56.98,57,62.5,65,-67.5,65,65
3,Béatrice Russic,Masters 2,Raw,B,,1969,F,54.35,57,52.5,-57.5,57.5,57.5,57.5
4,Isabelle Giraud,Masters 2,Raw,B,,1966,F,54.31,57,45,47.5,-50,47.5,47.5
1,Marie-Christine Pracella,Masters 2,Raw,B,,1965,F,59.73,63,80,85,-87.5,85,85
2,Stéphanie Cesard,Masters 2,Raw,B,,1974,F,58.39,63,70,72.5,-77.5,72.5,72.5
3,Christelle Musseau,Masters 2,Raw,B,,1974,F,57.99,63,65,-67.5,-67.5,65,65
4,Virginie Thouan,Masters 2,Raw,B,,1972,F,60.86,63,47.5,52.5,-55,52.5,52.5
1,Florence Leccese,Masters 2,Raw,B,,1969,F,66.46,69,75,78,80,80,80
2,Sylvie Charles,Masters 2,Raw,B,,1965,F,68.83,69,45,50,55,55,55
1,Stéphanie Bastien,Masters 2,Raw,B,,1974,F,82.89,84,90,95,100.5,100.5,100.5
1,Gilles Marigo,Masters 2,Raw,B,,1968,M,58.58,59,115,117.5,-121,117.5,117.5
2,Christophe Lesourd #1,Masters 2,Raw,B,,1973,M,58.89,59,107.5,-112.5,-112.5,107.5,107.5
1,Marc-Olivier Huchet,Masters 2,Raw,B,,1974,M,65.68,66,110,112.5,-115,112.5,112.5
2,Olivier Taviot,Masters 2,Raw,B,,1968,M,65.17,66,100,105,107.5,107.5,107.5
3,Bruno Le Gargasson,Masters 2,Raw,B,,1970,M,65.12,66,97.5,102.5,-105,102.5,102.5
4,Emmanuel Baudron,Masters 2,Raw,B,,1973,M,65.25,66,-100,-100,102.5,102.5,102.5
DQ,David Caille,Masters 2,Raw,B,,1968,M,65.01,66,-110,-110,-115,,
1,Mickaël Lager,Masters 2,Raw,B,,1971,M,73.13,74,160,167.5,-170.5,167.5,167.5
2,Jean-Pierre Nembrot,Masters 2,Raw,B,,1974,M,72.86,74,130,135,137.5,137.5,137.5
3,Vincent Eldin,Masters 2,Raw,B,,1972,M,73.78,74,127.5,135,137.5,137.5,137.5
4,Patrice Adam,Masters 2,Raw,B,,1966,M,73.62,74,122.5,130,-135,130,130
1,Gilles Augier,Masters 2,Raw,B,,1968,M,81.82,83,-160,160,-166,160,160
2,Ludovic Gavira,Masters 2,Raw,B,,1971,M,81.64,83,-140,147.5,-160,147.5,147.5
3,Christophe Bertolino,Masters 2,Raw,B,,1969,M,80.99,83,130,140,142.5,142.5,142.5
4,Ludovic Lutz,Masters 2,Raw,B,,1971,M,82.93,83,132.5,-137.5,137.5,137.5,137.5
5,François Lalande,Masters 2,Raw,B,,1973,M,80.91,83,135,-142.5,-142.5,135,135
6,David Lenne,Masters 2,Raw,B,,1970,M,82.03,83,130,135,-137.5,135,135
7,Yann Le May,Masters 2,Raw,B,,1973,M,80.72,83,122.5,125,-130,125,125
1,Hervé France,Masters 2,Raw,B,,1966,M,92.48,93,182.5,-190,190,190,190
2,Fabrice Bertin,Masters 2,Raw,B,,1967,M,93,93,157.5,162.5,-170,162.5,162.5
3,David Dufour,Masters 2,Raw,B,,1973,M,92.37,93,145,-152.5,152.5,152.5,152.5
4,Yves Lemagnen,Masters 2,Raw,B,,1966,M,91.31,93,142.5,145,147.5,147.5,147.5
5,Didier Dacquignie,Masters 2,Raw,B,,1973,M,91.49,93,142.5,-147.5,147.5,147.5,147.5
6,Mickael Colmard,Masters 2,Raw,B,,1971,M,91.75,93,140,145,-147.5,145,145
1,Marc Bouteiller,Masters 2,Raw,B,,1971,M,98.49,105,160,170,185,185,185
2,Frédéric Vildaer,Masters 2,Raw,B,,1974,M,101.85,105,145,152.5,155,155,155
1,Mourad Benkissous,Masters 2,Raw,B,,1973,M,113.03,120,170,177.5,-185,177.5,177.5
DQ,Raphael Messi,Masters 2,Raw,B,,1972,M,118.67,120,-185,-185,-185,,
DQ,Jérôme Guidez,Masters 2,Raw,B,,1974,M,153.12,120+,-172.5,-172.5,-172.5,,
1,Martine Servajean,Masters 3,Raw,B,,1958,F,44.22,47,57.5,60,62.5,62.5,62.5
1,Brigitte Landon,Masters 3,Raw,B,,1961,F,48.9,52,52.5,55,-57.5,55,55
2,Françoise-Gwenaele Le Doare,Masters 3,Raw,B,,1961,F,49.08,52,50,52.5,55,55,55
1,Lydie Grouet Molling,Masters 3,Raw,B,,1960,F,56.53,57,55,57.5,-60,57.5,57.5
2,Nadine Langlais,Masters 3,Raw,B,,1964,F,55.01,57,52.5,55,-57.5,55,55
3,Lucette Raffier,Masters 3,Raw,B,,1957,F,52.76,57,47.5,-50,-50,47.5,47.5
1,Sylvie Fradin,Masters 3,Raw,B,,1963,F,61.07,63,65,67.5,70,70,70
2,Evelyne Herbin,Masters 3,Raw,B,,1956,F,61.78,63,60,65,-70,65,65
3,Sylviane Vincent,Masters 3,Raw,B,,1959,F,62.35,63,45,-47.5,-47.5,45,45
1,Patricia Maciejewski,Masters 3,Raw,B,,1961,F,67.73,69,72.5,77.5,80,80,80
1,Françoise Zielman,Masters 3,Raw,B,,1955,F,72.96,76,55,57.5,60.5,60.5,60.5
2,Cathy Chipellino,Masters 3,Raw,B,,1960,F,69.78,76,47.5,50,52.5,52.5,52.5
1,Joelle Lemarchand,Masters 3,Raw,B,,1956,F,78.13,84,52.5,55,-57.5,55,55
1,Nathalie Gransard,Masters 3,Raw,B,,1964,F,98.67,84+,82.5,87.5,90,90,90
1,Ahmed Houari,Masters 3,Raw,B,,1959,M,64.82,66,105,115,-122.5,115,115
2,Dominique Fradin,Masters 3,Raw,B,,1964,M,64.68,66,95,-97.5,97.5,97.5,97.5
3,Patrick Evrard,Masters 3,Raw,B,,1957,M,64.97,66,90,92.5,-97.5,92.5,92.5
4,Gerard Maze Launay,Masters 3,Raw,B,,1962,M,64.34,66,85,87.5,-90,87.5,87.5
1,Philippe Valladas,Masters 3,Raw,B,,1959,M,73.16,74,-135,135,-140.5,135,135
2,Pierre-François Lapeyre,Masters 3,Raw,B,,1963,M,73.57,74,115,120,125,125,125
3,Eric Verhaege,Masters 3,Raw,B,,1963,M,72.91,74,110,120,-125,120,120
4,Roger Pardo,Masters 3,Raw,B,,1961,M,71.88,74,100,107.5,110,110,110
5,Daniel Jouannic,Masters 3,Raw,B,,1960,M,73.75,74,95,100,-102.5,100,100
6,Patrick Malenfant,Masters 3,Raw,B,,1958,M,72.67,74,87.5,92.5,-95,92.5,92.5
1,Laurent Taupe,Masters 3,Raw,B,,1964,M,81.63,83,135,142.5,145,145,145
2,Nasseur Houari,Masters 3,Raw,B,,1964,M,80.69,83,-137.5,-137.5,142.5,142.5,142.5
3,Georges Mingot,Masters 3,Raw,B,,1964,M,81.21,83,125,130,-132.5,130,130
4,Gilles Porcherel,Masters 3,Raw,B,,1957,M,81.82,83,125,-130,-132.5,125,125
5,Bernard Geffroy,Masters 3,Raw,B,,1963,M,79.71,83,100,105,-110,105,105
1,André Laforet,Masters 3,Raw,B,,1961,M,89.35,93,150,-155,-155,150,150
2,Serge Myrtil,Masters 3,Raw,B,,1956,M,85.93,93,140,145,147.5,147.5,147.5
3,Gilles Mandrick,Masters 3,Raw,B,,1959,M,91.69,93,140,142.5,-150,142.5,142.5
4,Hubert Piquard,Masters 3,Raw,B,,1963,M,91.05,93,122.5,127.5,132.5,132.5,132.5
1,Claude Simian,Masters 3,Raw,B,,1963,M,103.5,105,166,173,179,179,179
2,Philippe Szezepanski,Masters 3,Raw,B,,1964,M,100.24,105,165.5,172.5,178.5,178.5,178.5
3,Franck Begyn,Masters 3,Raw,B,,1963,M,96.27,105,140,145,-152.5,145,145
4,Daniel Nicot,Masters 3,Raw,B,,1962,M,103.64,105,125,-130,-130,125,125
1,Fabrice Leroy,Masters 3,Raw,B,,1963,M,107.65,120,157.5,162.5,165,165,165
2,Philippe Delapille,Masters 3,Raw,B,,1960,M,118.78,120,155,162.5,-165,162.5,162.5
3,Jean-Marc Ruchaud,Masters 3,Raw,B,,1959,M,111.45,120,140,-147.5,,140,140
1,Vincent Encinas,Masters 3,Raw,B,,1964,M,141.5,120+,150,165,172.5,172.5,172.5
2,Patrice Lefebvre,Masters 3,Raw,B,,1962,M,154.25,120+,140,160,-175,160,160
1,Guillemette Baudron,Masters 4,Raw,B,,1950,F,46.81,47,42.5,-45,45,45,45
1,Françoise Heligon,Masters 4,Raw,B,,1943,F,50.76,52,-40,40,42.5,42.5,42.5
1,Andrée Duboux,Masters 4,Raw,B,,1946,F,55.28,57,47.5,50,-55,50,50
1,Marc Henry,Masters 4,Raw,B,,1951,M,65.06,66,75,77.5,80,80,80
DQ,Serge Sorci,Masters 4,Raw,B,,1941,M,63.87,66,-85,-87.5,-87.5,,
1,Claude Sitruk,Masters 4,Raw,B,,1950,M,71.75,74,110,115,121,121,121
2,Claude Couturier,Masters 4,Raw,B,,1952,M,72.96,74,100,105,107.5,107.5,107.5
3,Patrick Dumaine,Masters 4,Raw,B,,1953,M,73.81,74,97.5,-102.5,-102.5,97.5,97.5
4,Georges Henry,Masters 4,Raw,B,,1952,M,69.72,74,87.5,-92.5,-92.5,87.5,87.5
5,Daniel Pestel,Masters 4,Raw,B,,1951,M,73.33,74,82.5,85,-90,85,85
1,Michel Naty,Masters 4,Raw,B,,1954,M,81.18,83,115,120,-127.5,120,120
2,Lionel Mesnard,Masters 4,Raw,B,,1953,M,80.5,83,107.5,115,117.5,117.5,117.5
3,Alain Delbeck,Masters 4,Raw,B,,1954,M,80.85,83,110,115,117.5,117.5,117.5
4,Michel Bensabeur,Masters 4,Raw,B,,1951,M,82.06,83,110,115,-117.5,115,115
5,Maurice Treche,Masters 4,Raw,B,,1950,M,80.56,83,105,107.5,-110,107.5,107.5
6,Christian Dufau,Masters 4,Raw,B,,1954,M,82.46,83,105,-107.5,-107.5,105,105
7,Marc Huchet,Masters 4,Raw,B,,1938,M,82.27,83,85,87.5,90,90,90
DQ,Alain Collard,Masters 4,Raw,B,,1952,M,80.23,83,-125,-125,-125,,
1,José Menis,Masters 4,Raw,B,,1948,M,92.71,93,100,-105,105,105,105
2,André Giliberto,Masters 4,Raw,B,,1950,M,91.14,93,100,-105,-105,100,100
1,Stanislas Couchy,Masters 4,Raw,B,,1953,M,99.03,105,140,150,-156,150,150
DQ,Boumedienne Bensalah,Masters 4,Raw,B,,1953,M,101.9,105,-132.5,-132.5,-137.5,,
1,Christian Pigeon,Masters 4,Raw,B,,1953,M,117.6,120,140,145,-150,145,145
