Division,WeightClassKg,Place,Name,Team,BodyweightKg,Best3SquatKg,Best3BenchKg,Best3DeadliftKg,TotalKg,Equipment,Event,Sex
Boys,51.71,1,Christian Lopez #8,Manor,51.71,129.27,90.72,158.76,378.75,Single-ply,SBD,M
Boys,51.71,2,Shawn Patterson,Bastrop Cedar Creek,51.71,104.33,68.04,124.74,297.1,Single-ply,SBD,M
Boys,51.71,3,Isac Edwards,Manor,51.71,77.11,52.16,120.2,249.48,Single-ply,SBD,M
Boys,51.71,4,Andres Gama,Manor,51.71,74.84,52.16,120.2,247.21,Single-ply,SBD,M
Boys,51.71,5,Tre Martin,Pflugerville Connally,51.71,54.43,49.9,72.57,176.9,Single-ply,SBD,M
Boys,51.71,DQ,Hayden Hughes,Georgetown,51.71,,,,,Single-ply,SBD,M
Boys,51.71,DQ,Kevin Sanders #2,Waco,51.71,,,,,Single-ply,SBD,M
Boys,55.79,1,Owen Mallard,Georgetown,55.52,161.03,95.25,181.44,437.72,Single-ply,SBD,M
Boys,55.79,2,Noah Pachicano,Taylor,55.79,161.03,104.33,170.1,435.45,Single-ply,SBD,M
Boys,55.79,3,Billy Pearson,Pflugerville Connally,55.79,142.88,72.57,183.7,399.16,Single-ply,SBD,M
Boys,59.87,1,Isaiah Mesa,Taylor,59.87,199.58,133.81,231.33,564.72,Single-ply,SBD,M
Boys,59.87,2,Danny Doan,Pflugerville Connally,59.87,127.01,83.91,133.81,344.73,Single-ply,SBD,M
Boys,59.87,3,Omar Deloera,Pflugerville,59.87,90.72,52.16,92.99,235.87,Single-ply,SBD,M
Boys,67.13,1,Lorenzo Sanchez,Taylor,67.13,235.87,133.81,235.87,605.55,Single-ply,SBD,M
Boys,67.13,2,Kenny Miller,Manor,67.13,190.51,129.27,219.99,539.77,Single-ply,SBD,M
Boys,67.13,3,Eduardo Perez,Georgetown,67.13,188.24,97.52,190.51,476.27,Single-ply,SBD,M
Boys,67.13,4,Dereon Kizzie,Pflugerville Connally,67.13,165.56,108.86,197.31,471.74,Single-ply,SBD,M
Boys,67.13,5,Matthew Kocian,Taylor,67.13,188.24,97.52,181.44,467.2,Single-ply,SBD,M
Boys,67.13,6,Josh Tiha,Manor,67.13,183.7,90.72,190.51,464.93,Single-ply,SBD,M
Boys,67.13,7,Christopher Brenham,Georgetown,67.13,183.7,90.72,167.83,442.25,Single-ply,SBD,M
Boys,67.13,8,Richard DelaRosa,Taylor,67.13,170.1,97.52,163.29,430.91,Single-ply,SBD,M
Boys,67.13,9,Daveon Douglas,Pflugerville,67.13,142.88,106.59,154.22,403.7,Single-ply,SBD,M
Boys,67.13,10,Matthew Reiff,Pflugerville,67.13,127.01,79.38,149.69,356.07,Single-ply,SBD,M
Boys,67.13,11,Ben Owens,Dripping Springs,67.13,127.01,77.11,142.88,347,Single-ply,SBD,M
Boys,67.13,12,Chance McGuire,Georgetown,67.13,127.01,63.5,151.95,342.46,Single-ply,SBD,M
Boys,67.13,13,Luke Owens,Dripping Springs,67.13,122.47,83.91,136.08,342.46,Single-ply,SBD,M
Boys,74.84,1,Daniel Hernandez #22,Taylor,74.84,260.82,124.74,210.92,596.47,Single-ply,SBD,M
Boys,74.84,2,Isaac Johnson,Elgin,74.84,226.8,117.93,226.8,571.53,Single-ply,SBD,M
Boys,74.84,3,Zach Reid,Dripping Springs,74.84,206.38,129.27,188.24,523.9,Single-ply,SBD,M
Boys,74.84,4,Dominic Barajas,Waco,74.84,174.63,108.86,204.12,487.61,Single-ply,SBD,M
Boys,74.84,5,Kevin Best,Manor,74.84,172.37,127.01,181.44,480.81,Single-ply,SBD,M
Boys,74.84,6,Kevin Cervantes,Elgin,74.84,161.03,124.74,183.7,469.47,Single-ply,SBD,M
Boys,74.84,7,Jordan Lawrence,Pflugerville Connally,74.84,161.03,111.13,197.31,469.47,Single-ply,SBD,M
Boys,74.84,8,Micheal Hernandez,Pflugerville,74.84,165.56,102.06,183.7,451.32,Single-ply,SBD,M
Boys,74.84,9,Drew Ybarra,Pflugerville Connally,74.84,147.42,102.06,192.78,442.25,Single-ply,SBD,M
Boys,74.84,10,Matthew Atkinson,Taylor,74.84,167.83,74.84,190.51,433.18,Single-ply,SBD,M
Boys,74.84,11,Peyton Blake,Elgin,74.84,156.49,95.25,156.49,408.23,Single-ply,SBD,M
Boys,74.84,12,Donte Miller,Pflugerville Connally,74.84,136.08,86.18,163.29,385.55,Single-ply,SBD,M
Boys,74.84,13,Tyheme Isabel,Waco,74.84,149.69,81.65,142.88,374.21,Single-ply,SBD,M
Boys,74.84,14,TJ Eldridge,Pflugerville Hendrickson,74.84,129.27,77.11,151.95,358.34,Single-ply,SBD,M
Boys,74.84,15,Keala Ruiz,Manor,74.84,108.86,74.84,149.69,333.39,Single-ply,SBD,M
Boys,74.84,16,Michael Nnaji,Pflugerville Connally,74.84,97.52,77.11,138.35,312.98,Single-ply,SBD,M
Boys,74.84,17,Felicito Ventura,Manor,74.84,102.06,61.23,136.08,299.37,Single-ply,SBD,M
Boys,74.84,18,Hugh Shelton,Taylor,74.84,165.56,,,165.56,Single-ply,S,M
Boys,74.84,DQ,Christian Rosales,Manor,74.84,,,,,Single-ply,SBD,M
Boys,82.1,1,Everado Araujo,Taylor,82.1,283.5,156.49,258.55,698.53,Single-ply,SBD,M
Boys,82.1,2,Jesus Oranday,Taylor,82.1,265.35,131.54,231.33,628.23,Single-ply,SBD,M
Boys,82.1,3,Phillip Wilson,Pflugerville Connally,82.1,249.48,154.22,222.26,625.96,Single-ply,SBD,M
Boys,82.1,4,Omar Essix,Waco,82.1,238.14,113.4,238.14,589.67,Single-ply,SBD,M
Boys,82.1,5,Matt Hemphill,Dripping Springs,82.1,229.06,142.88,213.19,585.13,Single-ply,SBD,M
Boys,82.1,6,Teondre Parsons,Waco University,82.1,195.04,136.08,197.31,528.44,Single-ply,SBD,M
Boys,82.1,7,Matt May,Georgetown,82.1,183.7,113.4,195.04,492.15,Single-ply,SBD,M
Boys,82.1,8,Walker Fain,Georgetown,82.1,170.1,99.79,170.1,439.98,Single-ply,SBD,M
Boys,82.1,9,Wesley Owens,Dripping Springs,82.1,163.29,99.79,158.76,421.84,Single-ply,SBD,M
Boys,82.1,10,Elliot Jamison,Dripping Springs,82.1,151.95,92.99,158.76,403.7,Single-ply,SBD,M
Boys,82.1,11,Andre Stiles,Pflugerville Connally,82.1,145.15,90.72,165.56,401.43,Single-ply,SBD,M
Boys,82.1,12,Cory Alcala,Pflugerville Connally,82.1,133.81,92.99,142.88,369.68,Single-ply,SBD,M
Boys,82.1,13,Brandon Hufford,Manor,82.1,90.72,72.57,147.42,310.71,Single-ply,SBD,M
Boys,82.1,14,Yaser Mirza,Pflugerville Connally,82.1,111.13,61.23,124.74,297.1,Single-ply,SBD,M
Boys,82.1,DQ,Trajon Lewis,Manor,82.1,,,,,Single-ply,SBD,M
Boys,89.81,1,Chris Hatch,Taylor,89.81,249.48,176.9,242.67,669.05,Single-ply,SBD,M
Boys,89.81,2,Olisa Uzuegbunam,Manor,89.81,215.46,124.74,226.8,566.99,Single-ply,SBD,M
Boys,89.81,3,Dwain Richie,Waco,89.81,215.46,115.67,226.8,557.92,Single-ply,SBD,M
Boys,89.81,4,RJ Petaia,Pflugerville,89.81,192.78,133.81,201.85,528.44,Single-ply,SBD,M
Boys,89.81,5,Aaron Porter,Pflugerville Hendrickson,89.81,190.51,102.06,224.53,517.1,Single-ply,SBD,M
Boys,89.81,6,Zach Bradburry,Pflugerville Hendrickson,89.81,188.24,117.93,204.12,510.29,Single-ply,SBD,M
Boys,89.81,7,Louis Kelley,Pflugerville,89.81,138.35,113.4,151.95,403.7,Single-ply,SBD,M
Boys,89.81,8,Chris Harvey,Elgin,89.81,129.27,95.25,170.1,394.63,Single-ply,SBD,M
Boys,89.81,DQ,Jake Smith #6,Elgin,89.81,,,,,Single-ply,SBD,M
Boys,89.81,DQ,Colton Hanacik,Taylor,89.81,,,,,Single-ply,SBD,M
Boys,99.79,1,Keeland Moore,Georgetown,99.79,272.16,165.56,229.06,666.78,Single-ply,SBD,M
Boys,99.79,2,Adrian Hunter,Manor,99.79,226.8,145.15,272.16,644.1,Single-ply,SBD,M
Boys,99.79,3,Joseph Rodriguez #5,Bastrop Cedar Creek,99.79,260.82,142.88,238.14,641.83,Single-ply,SBD,M
Boys,99.79,4,Derrick Juptner,Georgetown,99.79,240.4,165.56,229.06,635.03,Single-ply,SBD,M
Boys,99.79,5,Hunter Creasey,Georgetown,99.79,238.14,138.35,244.94,621.42,Single-ply,SBD,M
Boys,99.79,6,Nakia Wattson,Manor,99.79,206.38,136.08,215.46,557.92,Single-ply,SBD,M
Boys,99.79,7,Rashon Sheppard,Pflugerville Connally,98.88,204.12,122.47,204.12,530.7,Single-ply,SBD,M
Boys,99.79,8,Nathan Callihan,Dripping Springs,99.79,170.1,97.52,167.83,435.45,Single-ply,SBD,M
Boys,99.79,9,Daniel Monert,Manor,99.79,108.86,70.31,142.88,322.05,Single-ply,SBD,M
Boys,99.79,DQ,Bryan Sevilla,Pflugerville Connally,99.79,113.4,68.04,133.81,,Single-ply,SBD,M
Boys,99.79,DQ,Sebastian Bravo,Waco University,99.79,,,,,Single-ply,SBD,M
Boys,99.79,DQ,Denver Coddington,Pflugerville,99.79,,,,,Single-ply,SBD,M
Boys,109.77,1,Paul Dominguez,Taylor,109.77,347,206.38,242.67,796.05,Single-ply,SBD,M
Boys,109.77,2,Carlos Chester,Manor,109.77,276.69,183.7,288.03,748.43,Single-ply,SBD,M
Boys,109.77,3,Tyrese Beasley,Waco,109.77,263.08,131.54,213.19,607.81,Single-ply,SBD,M
Boys,109.77,4,Dameion Cavazos,Georgetown,109.77,229.06,147.42,188.24,564.72,Single-ply,SBD,M
Boys,109.77,5,Hunter Bohanan,Georgetown,109.77,226.8,142.88,183.7,553.38,Single-ply,SBD,M
Boys,109.77,6,Ricardo Montoya,Dripping Springs,109.77,197.31,113.4,195.04,505.76,Single-ply,SBD,M
Boys,109.77,7,James Rodriguez,Pflugerville,109.77,192.78,127.01,183.7,503.49,Single-ply,SBD,M
Boys,109.77,8,Jordan Jackson #2,Pflugerville Connally,109.77,192.78,113.4,190.51,496.68,Single-ply,SBD,M
Boys,109.77,9,Darrieon McLean,Waco,109.77,183.7,111.13,181.44,476.27,Single-ply,SBD,M
Boys,109.77,10,Jamar Wheeless,Waco,109.77,165.56,106.59,185.97,458.13,Single-ply,SBD,M
Boys,109.77,11,Jace Chambers,Pflugerville Hendrickson,109.77,170.1,102.06,179.17,451.32,Single-ply,SBD,M
Boys,109.77,12,Carnealus Manning,Waco,109.77,238.14,142.88,,381.02,Single-ply,SB,M
Boys,109.77,DQ,Kallen Maxwell,Pflugerville Connally,109.77,142.88,72.57,142.88,,Single-ply,SBD,M
Boys,124.74,1,Dominic Pastucci,Pflugerville Hendrickson,124.74,233.6,151.95,238.14,623.69,Single-ply,SBD,M
Boys,124.74,2,Jordan Barrs,Pflugerville,124.74,219.99,163.29,229.06,612.35,Single-ply,SBD,M
Boys,124.74,3,Josh Gordon,Elgin,124.74,215.46,142.88,249.48,607.81,Single-ply,SBD,M
Boys,124.74,4,Joshua Tran,Pflugerville Connally,124.74,213.19,124.74,235.87,573.79,Single-ply,SBD,M
Boys,124.74,5,Terry Cook,Elgin,124.74,215.46,117.93,233.6,566.99,Single-ply,SBD,M
Boys,124.74,6,Tairhek Kerley,Pflugerville Connally,124.74,215.46,108.86,217.72,542.04,Single-ply,SBD,M
Boys,124.74,7,Eliel Salazar,Elgin,124.74,188.24,140.61,204.12,532.97,Single-ply,SBD,M
Boys,124.74,8,Tristan Resendez,Pflugerville Connally,124.74,210.92,111.13,199.58,521.63,Single-ply,SBD,M
Boys,124.74,9,Lantz Milam,Pflugerville,124.74,206.38,115.67,188.24,510.29,Single-ply,SBD,M
Boys,124.74,10,Jeramiah Glenn,Pflugerville Connally,124.74,192.78,115.67,195.04,503.49,Single-ply,SBD,M
Boys,124.74,11,Kadin Lawerence,Elgin,124.74,158.76,113.4,192.78,464.93,Single-ply,SBD,M
Boys,124.74,12,Travis Claridge,Pflugerville Hendrickson,124.74,170.1,88.45,197.31,455.86,Single-ply,SBD,M
Boys,124.74,DQ,Khalil Glasker,Waco,124.74,,,,,Single-ply,SBD,M
Boys,124.74,DQ,Stefan Davis,Pflugerville Connally,124.74,111.13,106.59,,,Single-ply,SBD,M
Boys,124.74+,1,Marquis Gardner,Manor,132.45,317.51,188.24,242.67,748.43,Single-ply,SBD,M
Boys,124.74+,2,Domenico Valdespino,Pflugerville Hendrickson,133.36,249.48,138.35,244.94,632.76,Single-ply,SBD,M
Boys,124.74+,3,Jonathan Esqueda,Waco,134.99,274.42,122.47,233.6,630.49,Single-ply,SBD,M
Boys,124.74+,4,Anthony Rishton,Georgetown,142.97,249.48,145.15,217.72,612.35,Single-ply,SBD,M
Boys,124.74+,5,Anthony Hill,Manor,168.74,226.8,117.93,238.14,582.87,Single-ply,SBD,M
Boys,124.74+,6,Miguel Jaime,Dripping Springs,129.27,226.8,122.47,204.12,553.38,Single-ply,SBD,M
Boys,124.74+,7,Silas Davis,Pflugerville Connally,190.51,217.72,145.15,185.97,548.85,Single-ply,SBD,M
Boys,124.74+,8,Wesley Curry,Elgin,138.16,215.46,104.33,170.1,489.88,Single-ply,SBD,M
