Place,Name,Sex,Event,Division,WeightClassKg,Equipment,BirthYear,State,BodyweightKg,Squat1Kg,Squat2Kg,Squat3Kg,Best3SquatKg,Bench1Kg,Bench2Kg,Bench3Kg,Best3BenchKg,Deadlift1Kg,Deadlift2Kg,Deadlift3Kg,Best3DeadliftKg,TotalKg
1,Connie Sariraksa,F,SBD,FR-Jr,63,Raw,1995,WA,61.2,60,65,70,70,-42.5,45,50,50,85,90,95,95,215
1,Loann Testerman,F,SBD,FR-M1,47,Raw,1976,WA,44.2,-85,90,95,95,37.5,-42.5,-42.5,37.5,80,87.5,95,95,227.5
1,Dale Lougen,F,SBD,FR-M1,63,Raw,1978,WA,62.3,112.5,-117.5,122.5,122.5,-57.5,65,-70,65,112.5,117.5,-137.5,117.5,305
1,Peggy Entrop,F,SBD,FR-M1,84+,Raw,1978,WA,147.2,-100,100,110,110,80,-85,-85,80,110,125,140,140,330
2,Amanda Poitras,F,SBD,FR-M1,84+,Raw,1977,WA,132,-72.5,-72.5,75,75,62.5,65,-75,65,117.5,137.5,-150,137.5,277.5
1,Claudia Arguero,F,SBD,FR-M2,57,Raw,1961,WA,53.5,75,77.5,80,80,35,-37.5,-40,35,92.5,105,107.5,107.5,222.5
1,Isabelle Iliev,F,SBD,FR-M2,63,Raw,1967,WA,62.5,100,,,100,70,,,70,120,,,120,290
1,Sherri Nichols,F,SBD,FR-M2,72,Raw,1962,WA,71.4,82.5,-85,85,85,57.5,60,-65,60,100,105,112.5,112.5,257.5
1,Rhonda Wilkerson,F,SBD,FR-M3,84,Raw,1952,WA,78.9,-35,-35,35,35,37.5,40,45,45,65,70,75,75,155
1,Amy Osborn,F,SBD,FR-O,57,Raw,1987,WA,55.5,92.5,-117.5,-117.5,92.5,55,62.5,-67.5,62.5,92.5,122.5,-130,122.5,277.5
2,Katrina Freitag,F,SBD,FR-O,57,Raw,1987,WA,55.1,62.5,65,72.5,72.5,42.5,50,-52.5,50,80,90,-102.5,90,212.5
1,Olivia Crusoe,F,SBD,FR-O,63,Raw,1993,WA,62,115,120,125,125,60,-62.5,62.5,62.5,140,150,157.5,157.5,345
2,Elena Unruh,F,SBD,FR-O,63,Raw,1983,WA,59.3,70,77.5,87.5,87.5,42.5,-50,52.5,52.5,102.5,112.5,127.5,127.5,267.5
1,Connie Zhang,F,SBD,FR-O,72,Raw,1990,WA,66.7,105,112.5,117.5,117.5,65,72.5,77.5,77.5,140,150,160,160,355
2,Shannon Henry,F,SBD,FR-O,72,Raw,1993,WA,64.4,100,110,117.5,117.5,47.5,-57.5,57.5,57.5,105,120,132.5,132.5,307.5
3,Susan Lapointe,F,SBD,FR-O,72,Raw,1993,WA,64.1,107.5,115,120,120,-57.5,57.5,-60,57.5,112.5,120,-135,120,297.5
4,Claire Raleigh,F,SBD,FR-O,72,Raw,1984,WA,70.7,97.5,102.5,107.5,107.5,47.5,-52.5,-52.5,47.5,127.5,137.5,142.5,142.5,297.5
5,Charlotte Blythe,F,SBD,FR-O,72,Raw,1987,WA,71.4,77.5,82.5,-87.5,82.5,40,42.5,45,45,100,105,112.5,112.5,240
6,Evan Quinn #2,F,SBD,FR-O,72,Raw,1984,WA,68.8,70,75,82.5,82.5,42.5,45,-47.5,45,85,90,97.5,97.5,225
7,Kimberly Rush,F,SBD,FR-O,72,Raw,1992,WA,68.5,50,55,65,65,35,40,-50,40,90,-102.5,-102.5,90,195
1,Grace Dyer,F,SBD,FR-O,84,Raw,1994,WA,81.5,110,117.5,122.5,122.5,60,67.5,-75,67.5,112.5,122.5,-132.5,122.5,312.5
2,Carrie Wainwright,F,SBD,FR-O,84,Raw,1983,WA,82.1,85,90,-95,90,47.5,50,55,55,120,127.5,137.5,137.5,282.5
1,Maria Dailey,F,SBD,FR-T1,72,Raw,2002,WA,67.6,125,130,137.5,137.5,67.5,72.5,75,75,140,147.5,155,155,367.5
1,Kimberly Ly,F,SBD,FR-T3,47,Raw,1998,WA,46.7,50,55,-62.5,55,32.5,35,-40,35,75,82.5,90,90,180
1,Ivana Kim,F,SBD,FR-T3,57,Raw,1999,WA,55.5,80,85,90,90,40,42.5,47.5,47.5,102.5,110,117.5,117.5,255
1,Jessi Barrios,M,SBD,MR-Jr,74,Raw,1996,WA,69.9,125,142.5,147.5,147.5,92.5,-97.5,-97.5,92.5,165,182.5,192.5,192.5,432.5
1,Carlos Pantoja,M,SBD,MR-Jr,83,Raw,1994,IN,82,207.5,-217.5,-217.5,207.5,152.5,-157.5,160,160,255,265,-272.5,265,632.5
2,Gionn Buenavides,M,SBD,MR-Jr,83,Raw,1997,WA,75.1,152.5,162.5,-175,162.5,92.5,102.5,112.5,112.5,192.5,200,212.5,212.5,487.5
1,Seishu Horikoshi,M,SBD,MR-Jr,93,Raw,1997,WA,92,187.5,202.5,210,210,145,155,-160,155,215,227.5,232.5,232.5,597.5
2,Joshua Pinca,M,SBD,MR-Jr,93,Raw,1995,WA,90.5,215,235,-245,235,110,122.5,125,125,205,212.5,227.5,227.5,587.5
1,Matt Whitaker,M,SBD,MR-Jr,105,Raw,1995,WA,94,197.5,200,207.5,207.5,117.5,122.5,130,130,205,215,222.5,222.5,560
2,Austin Heathman,M,SBD,MR-Jr,105,Raw,1996,WA,103.5,155,175,182.5,182.5,110,120,-142.5,120,200,220,230,230,532.5
3,Brandon Khademi,M,SBD,MR-Jr,105,Raw,1994,WA,102.7,155,165,-172.5,165,125,130,135,135,210,222.5,-225,222.5,522.5
1,Lucas Hatton,M,SBD,MR-Jr,120,Raw,1995,WA,119.8,240,260,280,280,-165,172.5,-182.5,172.5,230,247.5,272.5,272.5,725
1,Nathan Weigand,M,SBD,MR-M1,83,Raw,1976,WA,79.8,70,90,-110,90,110,125,-140,125,-150,175,195,195,410
1,Chris Weber,M,SBD,MR-M1,93,Raw,1970,WA,90.9,182.5,187.5,192.5,192.5,125,130,-135,130,190,200,210,210,532.5
1,Patrick Gaffney,M,SBD,MR-M2,120+,Raw,1968,WA,151.7,165,182.5,195,195,142.5,160,170,170,-142.5,150,182.5,182.5,547.5
1,Mark Wythes,M,SBD,MR-M3,83,Raw,1953,WA,79.4,-85,-87.5,87.5,87.5,77.5,82.5,-90,82.5,130,-140,-140,130,300
1,Anthony Nguyen #2,M,SBD,MR-O,74,Raw,1993,WA,72,152.5,162.5,170,170,112.5,117.5,-125,117.5,182.5,207.5,227.5,227.5,515
2,Curtis Lan,M,SBD,MR-O,74,Raw,1991,WA,71.9,112.5,120,127.5,127.5,80,85,92.5,92.5,130,137.5,145,145,365
1,Nathan Sandberg,M,SBD,MR-O,83,Raw,1991,WA,80.3,135,147.5,152.5,152.5,102.5,112.5,117.5,117.5,190,202.5,215,215,485
2,Mel Nunez,M,SBD,MR-O,83,Raw,1992,OR,76.6,162.5,-172.5,-172.5,162.5,112.5,-115,115,115,197.5,205,-207.5,205,482.5
1,Isidro Solis,M,SBD,MR-O,93,Raw,1982,WA,91.1,167.5,192.5,207.5,207.5,112.5,130,142.5,142.5,185,215,222.5,222.5,572.5
2,Justin Simpson,M,SBD,MR-O,93,Raw,1988,WA,91.4,192.5,202.5,215,215,102.5,110,-120,110,185,197.5,207.5,207.5,532.5
3,Jacob Young #5,M,SBD,MR-O,93,Raw,1992,WA,89.3,170,180,-187.5,180,112.5,-120,-120,112.5,215,222.5,-230,222.5,515
4,Josh Letteer,M,SBD,MR-O,93,Raw,1992,WA,92.8,137.5,152.5,162.5,162.5,110,117.5,127.5,127.5,160,172.5,187.5,187.5,477.5
5,Matthew Sanchez,M,SBD,MR-O,93,Raw,1992,WA,88.2,137.5,145,152.5,152.5,90,105,-112.5,105,172.5,187.5,197.5,197.5,455
6,Patrick Dobson,M,SBD,MR-O,93,Raw,1991,WA,90.6,102.5,107.5,112.5,112.5,87.5,-97.5,-97.5,87.5,125,130,140,140,340
1,Melvin Santos,M,SBD,MR-O,105,Raw,1986,WA,94.5,180,190,-200,190,127.5,137.5,147.5,147.5,215,227.5,240,240,577.5
2,Matt McLaughlin,M,SBD,MR-O,105,Raw,1989,WA,103.1,180,187.5,195,195,117.5,125,130,130,220,232.5,242.5,242.5,567.5
3,Jeremy Wehr,M,SBD,MR-O,105,Raw,1993,WA,101.6,160,167.5,175,175,102.5,107.5,-110,107.5,215,222.5,230,230,512.5
1,Harry Kahuhu,M,SBD,MR-O,120,Raw,1988,WA,116.5,195,205,227.5,227.5,152.5,165,-172.5,165,245,265,285,285,677.5
1,Gary Prtune,M,SBD,MR-O,120+,Raw,1988,WA,123.5,150,165,185,185,100,115,-135,115,190,210,215,215,515
2,Jacob Matthews,M,SBD,MR-O,120+,Raw,1981,WA,127.1,145,155,162.5,162.5,102.5,107.5,-117.5,107.5,200,215,227.5,227.5,497.5
1,George Dailey,M,SBD,MR-T1,59,Raw,2002,WA,53.6,97.5,102.5,107.5,107.5,47.5,52.5,-57.5,52.5,97.5,105,112.5,112.5,272.5
1,Joseph Dailey,M,SBD,MR-T1,66,Raw,2003,WA,60,97.5,102.5,-110,102.5,52.5,57.5,-60,57.5,102.5,-110,110,110,270
1,Jeremiah Dailey,M,SBD,MR-T1,74,Raw,2002,WA,68.6,125,-132.5,137.5,137.5,60,70,77.5,77.5,117.5,137.5,142.5,142.5,357.5
1,Dean Christianson,M,SBD,MR-T2,93,Raw,2001,WA,87.6,120,137.5,-150,137.5,85,92.5,97.5,97.5,157.5,177.5,200,200,435
1,Jeffrey Leung,M,SBD,MR-T3,74,Raw,1999,WA,73.6,-172.5,-172.5,172.5,172.5,105,107.5,110,110,205,215,-227.5,215,497.5
